<?xml version="1.0" encoding="utf-8"?>
<!-- Generator: Adobe Illustrator 16.0.0, SVG Export Plug-In . SVG Version: 6.00 Build 0)  -->
<!DOCTYPE svg PUBLIC "-//W3C//DTD SVG 1.1//EN" "http://www.w3.org/Graphics/SVG/1.1/DTD/svg11.dtd">
<svg version="1.1" id="Layer_1" xmlns="http://www.w3.org/2000/svg" xmlns:xlink="http://www.w3.org/1999/xlink" x="0px" y="0px"
	 width="311.811px" height="308.976px" viewBox="0 0 311.811 308.976" enable-background="new 0 0 311.811 308.976"
	 xml:space="preserve">
<g>
	<rect x="22.677" y="157.914" fill="#FFFFFF" width="266.457" height="0.999"/>
</g>
<g>
	<g>
		<path fill="#FFFFFF" d="M44.825,61.611l0.036-6.676c0-0.34,0-1.148,0.018-2.375c-0.239,1.148-0.443,1.961-0.555,2.414l-1.65,6.637
			h-2.982l-1.668-6.486c-0.185-0.736-0.352-1.584-0.537-2.564c0.036,1.168,0.055,1.998,0.055,2.508v6.543H33.67V48.052h5.207
			l1.853,6.772c0.037,0.168,0.185,0.828,0.445,1.979c0.185-0.98,0.333-1.641,0.426-1.961l1.891-6.79h5.207v13.559H44.825z"/>
		<path fill="#FFFFFF" d="M51.589,50.58v-2.866h3.948v2.866H51.589z M51.589,61.611V51.597h3.948v10.014H51.589z"/>
		<path fill="#FFFFFF" d="M64.95,61.611v-5.186c0-1.377-0.259-1.998-1.335-1.998c-0.981,0-1.463,0.66-1.463,2.016v5.168h-3.91
			V51.597H61.8v1.471c0.908-1.168,2.02-1.734,3.447-1.734c1.205,0,2.15,0.416,2.798,1.207c0.76,0.924,0.815,2.131,0.815,3.865v5.205
			H64.95z"/>
		<path fill="#FFFFFF" d="M71.481,50.58v-2.866h3.947v2.866H71.481z M71.481,61.611V51.597h3.947v10.014H71.481z"/>
		<path fill="#FFFFFF" d="M82.507,61.97c-3.188,0-4.854-1.17-5.022-3.508h3.797c0,0.848,0.427,1.264,1.279,1.264
			c0.835,0,1.279-0.303,1.279-0.83c0-0.715-0.557-0.793-1.65-1.037c-3.037-0.66-4.446-1.207-4.446-3.318
			c0-2.133,1.649-3.301,4.836-3.301c2.946,0,4.558,1.074,4.8,3.148H83.86c-0.057-0.586-0.538-0.98-1.243-0.98
			c-0.704,0-1.055,0.264-1.055,0.699c0,0.717,0.648,0.717,1.871,0.998c2.929,0.68,4.281,1.225,4.281,3.395
			C87.714,60.783,85.953,61.97,82.507,61.97z"/>
		<path fill="#FFFFFF" d="M93.588,61.781c-2.427,0-3.336-0.697-3.336-2.865v-5.018h-1.388v-2.301h1.388v-3.092h3.894v3.092h1.833
			v2.301h-1.833v4c0,0.715,0.369,0.922,1.314,0.922c0.167,0,0.352,0,0.556-0.018v2.885C95.163,61.742,94.348,61.781,93.588,61.781z"
			/>
		<path fill="#FFFFFF" d="M101.278,57.482c0.038,1.281,0.686,1.998,1.817,1.998c0.759,0,1.28-0.301,1.464-0.828h3.742
			c-0.537,2.166-2.39,3.318-5.43,3.318c-3.408,0-5.503-2.096-5.503-5.281c0-3.357,2.15-5.449,5.652-5.449
			c3.485,0,5.595,2.225,5.595,5.996v0.246H101.278z M102.981,53.615c-1.018,0-1.647,0.68-1.704,1.867h3.486
			C104.689,54.238,104.096,53.615,102.981,53.615z"/>
		<path fill="#FFFFFF" d="M116.492,55.257c-1.574,0-2.297,0.695-2.297,2.242v4.111h-3.928V51.597h3.614v1.83
			c0.52-1.471,1.463-2.094,3.057-2.094h0.353v3.979C116.995,55.275,116.734,55.257,116.492,55.257z"/>
		<path fill="#FFFFFF" d="M123.61,61.97c-3.188,0-4.856-1.17-5.022-3.508h3.798c0,0.848,0.426,1.264,1.279,1.264
			c0.834,0,1.279-0.303,1.279-0.83c0-0.715-0.557-0.793-1.649-1.037c-3.04-0.66-4.448-1.207-4.448-3.318
			c0-2.133,1.65-3.301,4.837-3.301c2.946,0,4.558,1.074,4.8,3.148h-3.522c-0.055-0.586-0.538-0.98-1.242-0.98
			s-1.056,0.264-1.056,0.699c0,0.717,0.649,0.717,1.872,0.998c2.928,0.68,4.281,1.225,4.281,3.395
			C128.817,60.783,127.057,61.97,123.61,61.97z"/>
		<path fill="#FFFFFF" d="M134.748,61.781c-2.428,0-3.336-0.697-3.336-2.865v-5.018h-1.39v-2.301h1.39v-3.092h3.892v3.092h1.834
			v2.301h-1.834v4c0,0.715,0.372,0.922,1.316,0.922c0.166,0,0.353,0,0.555-0.018v2.885
			C136.323,61.742,135.508,61.781,134.748,61.781z"/>
		<path fill="#FFFFFF" d="M152.259,61.611h-3.836l-1.429-5.789l-1.426,5.789h-3.835l-3.243-10.014h3.873l1.463,6.111l1.52-6.111
			h3.301l1.52,6.111l1.463-6.111h3.725L152.259,61.611z"/>
		<path fill="#FFFFFF" d="M161.283,61.97c-3.464,0-5.559-2.057-5.559-5.375s2.095-5.355,5.559-5.355c3.467,0,5.56,2.037,5.56,5.355
			S164.75,61.97,161.283,61.97z M161.283,54.011c-1.185,0-1.612,0.812-1.612,2.584c0,1.773,0.428,2.604,1.612,2.604
			c1.187,0,1.632-0.83,1.632-2.604C162.915,54.824,162.469,54.011,161.283,54.011z"/>
		<path fill="#FFFFFF" d="M45.186,84.712l-4.403-7.332l-1.427,1.502v5.83h-5.728V66.408h5.728v6.059l5.18-6.059h6.704l-6.429,6.746
			l7.256,11.559H45.186z"/>
		<path fill="#FFFFFF" d="M62.283,84.712v-1.986c-1.225,1.578-2.725,2.342-4.652,2.342c-1.625,0-2.902-0.561-3.779-1.631
			c-1.024-1.244-1.075-2.9-1.075-5.244v-7h5.278v6.977c0,1.857,0.351,2.725,1.801,2.725c1.327,0,1.976-0.918,1.976-2.752v-6.949
			h5.28v13.52H62.283z"/>
		<path fill="#FFFFFF" d="M70.465,84.712V66.408h5.328v18.305H70.465z"/>
		<path fill="#FFFFFF" d="M84.525,84.941c-3.278,0-4.504-0.943-4.504-3.869V74.3h-1.876v-3.107h1.876v-4.174h5.253v4.174h2.478V74.3
			h-2.478v5.396c0,0.967,0.5,1.246,1.776,1.246c0.225,0,0.476,0,0.752-0.025v3.896C86.651,84.89,85.551,84.941,84.525,84.941z"/>
		<path fill="#FFFFFF" d="M99.684,84.712v-1.986c-1.227,1.578-2.727,2.342-4.652,2.342c-1.626,0-2.902-0.561-3.778-1.631
			c-1.025-1.244-1.076-2.9-1.076-5.244v-7h5.277v6.977c0,1.857,0.352,2.725,1.802,2.725c1.327,0,1.976-0.918,1.976-2.752v-6.949
			h5.28v13.52H99.684z"/>
		<path fill="#FFFFFF" d="M116.171,76.13c-2.126,0-3.102,0.943-3.102,3.031v5.551h-5.304v-13.52h4.878v2.471
			c0.7-1.986,1.977-2.826,4.127-2.826h0.476v5.371C116.846,76.158,116.496,76.13,116.171,76.13z"/>
		<path fill="#FFFFFF" d="M129.318,84.634c-0.677,2.088-1.177,3.59-1.977,4.381c-1.026,1.041-2.327,1.119-4.177,1.119
			c-0.626,0-1.525-0.025-2.679-0.102v-3.996h1.503c0.974,0,1.45-0.307,1.45-1.146c0-0.383-0.102-0.816-0.274-1.324l-4.453-12.373
			h5.352l2.327,8.199l2.251-8.199h4.979L129.318,84.634z"/>
		<path fill="#FFFFFF" d="M33.559,93.009v-2.867h3.948v2.867H33.559z M33.559,104.039V94.027h3.948v10.012H33.559z"/>
		<path fill="#FFFFFF" d="M55.555,103.472c-1.131,0.527-2.707,0.566-4.782,0.566H46.4V90.482h5.17c1.908,0,3.392,0.057,4.615,0.773
			c1.854,1.092,2.779,3.094,2.779,6.014C58.964,100.343,57.797,102.455,55.555,103.472z M51.886,93.914h-1.204v6.693h1.148
			c2.112,0,2.836-0.812,2.836-3.338C54.667,94.82,53.906,93.914,51.886,93.914z"/>
		<path fill="#FFFFFF" d="M60.144,104.039v-2.697l4.484-4.393h-4.097v-2.922h8.711v2.676l-4.373,4.412h4.593v2.924H60.144z"/>
		<path fill="#FFFFFF" d="M71.207,93.009v-2.867h3.948v2.867H71.207z M71.207,104.039V94.027h3.948v10.012H71.207z"/>
		<path fill="#FFFFFF" d="M81.008,99.91c0.038,1.281,0.688,1.998,1.817,1.998c0.76,0,1.279-0.303,1.464-0.83h3.743
			c-0.538,2.168-2.39,3.318-5.429,3.318c-3.409,0-5.504-2.094-5.504-5.279c0-3.355,2.15-5.447,5.651-5.447
			c3.486,0,5.598,2.225,5.598,5.994v0.246H81.008z M82.715,96.044c-1.019,0-1.649,0.678-1.707,1.865h3.486
			C84.419,96.666,83.827,96.044,82.715,96.044z"/>
		<path fill="#FFFFFF" d="M97.168,104.039v-1.227c-0.852,1.076-1.909,1.584-3.225,1.584c-2.483,0-4.224-2.055-4.224-5.316
			s1.778-5.355,4.188-5.355c1.186,0,2.13,0.453,2.91,1.377v-4.619h3.816v13.557H97.168z M95.241,96.816
			c-1.093,0-1.595,0.754-1.595,2.32c0,1.488,0.613,2.316,1.595,2.316s1.613-0.828,1.613-2.316
			C96.854,97.57,96.335,96.816,95.241,96.816z"/>
		<path fill="#FFFFFF" d="M102.172,104.039v-2.697l4.483-4.393h-4.094v-2.922h8.709v2.676l-4.373,4.412h4.595v2.924H102.172z"/>
		<path fill="#FFFFFF" d="M113.236,93.009v-2.867h3.946v2.867H113.236z M113.236,104.039V94.027h3.946v10.012H113.236z"/>
		<path fill="#FFFFFF" d="M124.293,104.396c-3.521,0-5.652-2.094-5.652-5.375c0-3.316,2.131-5.352,5.616-5.352
			c3.206,0,5.243,1.658,5.336,4.164h-3.91c-0.074-0.941-0.538-1.395-1.445-1.395c-1.149,0-1.65,0.83-1.65,2.582
			c0,1.773,0.483,2.604,1.614,2.604c0.909,0,1.426-0.51,1.518-1.49h3.912C129.463,102.755,127.462,104.396,124.293,104.396z"/>
		<path fill="#FFFFFF" d="M135.319,104.207c-2.428,0-3.336-0.697-3.336-2.865v-5.017h-1.388v-2.298h1.388v-3.092h3.892v3.092h1.835
			v2.298h-1.835v3.997c0,0.717,0.373,0.926,1.317,0.926c0.166,0,0.352,0,0.554-0.02v2.885
			C136.896,104.169,136.08,104.207,135.319,104.207z"/>
		<path fill="#FFFFFF" d="M152.592,104.039h-3.836l-1.426-5.789l-1.429,5.789h-3.835l-3.242-10.012h3.872l1.463,6.107l1.521-6.107
			h3.3l1.517,6.107l1.466-6.107h3.723L152.592,104.039z"/>
		<path fill="#FFFFFF" d="M163.211,104.039l-0.241-0.961c-1,0.904-2.132,1.318-3.575,1.318c-2.242,0-3.484-1.17-3.484-3.186
			c0-2.227,1.371-2.848,4.279-3.227c1.891-0.244,2.705-0.15,2.705-1.074c0-0.585-0.463-0.826-1.406-0.826
			c-0.815,0-1.244,0.318-1.316,0.996h-3.818c0.037-2.242,1.816-3.41,5.265-3.41c1.796,0,3.168,0.396,3.835,0.848
			c1.039,0.717,1.26,1.471,1.26,2.809v5.58c0,0.359,0.146,0.66,0.426,0.85v0.283H163.211z M162.86,99.57
			c-1.816,0.697-2.967,0.564-2.967,1.525c0,0.566,0.391,0.906,1.114,0.906c1.315,0,1.87-0.604,1.87-1.924
			C162.877,99.91,162.877,99.74,162.86,99.57z"/>
		<path fill="#FFFFFF" d="M42.138,122.896l-3.742-6.262c-0.205-0.338-0.484-0.998-0.78-1.941c0.111,0.678,0.111,1.301,0.111,1.848
			v6.355H33.67v-13.559h4.057l3.744,6.299c0.221,0.357,0.481,0.998,0.779,1.941c-0.094-0.584-0.112-1.207-0.112-1.848v-6.393h4.077
			v13.559H42.138z"/>
		<path fill="#FFFFFF" d="M55.315,122.896l-0.242-0.963c-1,0.906-2.13,1.32-3.577,1.32c-2.241,0-3.483-1.168-3.483-3.186
			c0-2.227,1.372-2.848,4.28-3.227c1.89-0.246,2.706-0.15,2.706-1.074c0-0.584-0.463-0.828-1.408-0.828
			c-0.817,0-1.242,0.32-1.316,0.998h-3.818c0.039-2.244,1.817-3.414,5.263-3.414c1.798,0,3.168,0.396,3.836,0.85
			c1.038,0.717,1.26,1.471,1.26,2.811v5.582c0,0.357,0.148,0.66,0.429,0.846v0.285H55.315z M54.963,118.427
			c-1.817,0.695-2.965,0.564-2.965,1.525c0,0.566,0.388,0.906,1.11,0.906c1.316,0,1.872-0.604,1.872-1.924
			C54.98,118.765,54.98,118.595,54.963,118.427z"/>
		<path fill="#FFFFFF" d="M67.198,116.541c-1.575,0-2.299,0.697-2.299,2.242v4.113H60.97v-10.014h3.614v1.828
			c0.52-1.469,1.463-2.094,3.058-2.094h0.352v3.979C67.697,116.558,67.438,116.541,67.198,116.541z"/>
		<path fill="#FFFFFF" d="M74.387,123.253c-3.465,0-5.559-2.055-5.559-5.375c0-3.318,2.093-5.355,5.559-5.355
			c3.466,0,5.56,2.037,5.56,5.355C79.946,121.199,77.853,123.253,74.387,123.253z M74.387,115.296c-1.186,0-1.611,0.811-1.611,2.582
			c0,1.773,0.425,2.604,1.611,2.604c1.188,0,1.631-0.83,1.631-2.604C76.018,116.107,75.574,115.296,74.387,115.296z"/>
		<path fill="#FFFFFF" d="M88.434,122.896v-1.227c-0.852,1.076-1.909,1.584-3.225,1.584c-2.482,0-4.226-2.055-4.226-5.318
			c0-3.262,1.779-5.355,4.189-5.355c1.186,0,2.131,0.453,2.91,1.377v-4.619h3.817v13.559H88.434z M86.508,115.673
			c-1.095,0-1.595,0.754-1.595,2.318c0,1.49,0.611,2.32,1.595,2.32c0.98,0,1.613-0.83,1.613-2.32
			C88.121,116.427,87.6,115.673,86.508,115.673z"/>
		<path fill="#FFFFFF" d="M98.978,123.253c-3.465,0-5.559-2.055-5.559-5.375c0-3.318,2.094-5.355,5.559-5.355
			c3.466,0,5.56,2.037,5.56,5.355C104.537,121.199,102.444,123.253,98.978,123.253z M98.978,115.296
			c-1.186,0-1.613,0.811-1.613,2.582c0,1.773,0.427,2.604,1.613,2.604c1.187,0,1.63-0.83,1.63-2.604
			C100.607,116.107,100.165,115.296,98.978,115.296z"/>
		<path fill="#FFFFFF" d="M118.53,122.896h-3.836l-1.426-5.791l-1.426,5.791h-3.836l-3.245-10.014h3.874l1.465,6.109l1.519-6.109
			h3.298l1.52,6.109l1.463-6.109h3.725L118.53,122.896z"/>
		<path fill="#FFFFFF" d="M125.906,118.765c0.039,1.283,0.686,2,1.817,2c0.76,0,1.278-0.305,1.463-0.83h3.744
			c-0.538,2.168-2.391,3.318-5.431,3.318c-3.41,0-5.503-2.094-5.503-5.279c0-3.355,2.148-5.451,5.65-5.451
			c3.485,0,5.597,2.227,5.597,5.998v0.244H125.906z M127.61,114.9c-1.019,0-1.649,0.678-1.705,1.867h3.484
			C129.316,115.523,128.723,114.9,127.61,114.9z"/>
		<path fill="#FFFFFF" d="M139.786,126.931c-2.817,0-4.484-1.111-4.744-2.961h3.873c0.092,0.49,0.444,0.678,1.149,0.678
			c1.297,0,1.463-0.564,1.463-2.092v-0.549c-0.666,0.662-1.574,0.982-2.741,0.982c-2.651,0-4.392-2-4.392-5.072
			c0-3.299,1.703-5.301,4.205-5.301c1.407,0,2.447,0.492,3.224,1.566v-1.301h3.466v9.24
			C145.29,125.611,143.77,126.931,139.786,126.931z M139.86,115.56c-1.056,0-1.576,0.754-1.576,2.262
			c0,1.584,0.501,2.377,1.576,2.377c1.149,0,1.649-0.771,1.649-2.357C141.509,116.371,140.896,115.56,139.86,115.56z"/>
		<path fill="#FFFFFF" d="M152.202,123.253c-3.465,0-5.559-2.055-5.559-5.375c0-3.318,2.094-5.355,5.559-5.355
			c3.466,0,5.559,2.037,5.559,5.355C157.76,121.199,155.667,123.253,152.202,123.253z M152.202,115.296
			c-1.186,0-1.611,0.811-1.611,2.582c0,1.773,0.426,2.604,1.611,2.604c1.187,0,1.631-0.83,1.631-2.604
			C153.833,116.107,153.388,115.296,152.202,115.296z"/>
		<path fill-rule="evenodd" clip-rule="evenodd" fill="#FFFFFF" d="M160.62,116.892h5.986v5.986h-5.986V116.892z M158.292,122.896"
			/>
	</g>
	<g>
		<path fill="#FFFFFF" d="M263.074,79.609V32.454c-0.026-0.562-0.499-1.008-1.06-1.008c-0.289,0-0.568,0.115-0.765,0.323
			l-4.732,4.726c-0.553,0.561-0.553,1.469,0,2.021l0.065,0.064c0.054,0.076,0.109,0.146,0.181,0.211l2.73,2.739v0.013l1.414,1.408
			c0.412,0.416,0.412,1.096,0,1.507l-2.03,2.032l-0.013-0.006l-0.973,0.979c-0.404,0.404-0.404,1.064,0,1.469l0.768,0.768
			l0.691,0.691l1.488,1.486c0.389,0.41,0.382,1.059-0.014,1.453l-3.434,3.43c-0.408,0.406-1.062,0.406-1.469,0l-3.428-3.43
			c-0.403-0.4-0.403-1.059,0-1.463v-0.004l2.162-2.164l0.766-0.768c0.407-0.405,0.407-1.065,0-1.469l-3.426-3.429
			c-0.408-0.405-1.066-0.405-1.472,0l-3.429,3.429c-0.407,0.404-0.407,1.064,0,1.469l0.771,0.768l0.572,0.57l1.597,1.605
			c0.397,0.404,0.393,1.059-0.011,1.455l-3.426,3.43c-0.406,0.406-1.068,0.406-1.471,0l-3.434-3.43c-0.4-0.4-0.4-1.062,0-1.467
			l0.735-0.736l2.199-2.195c0.401-0.405,0.401-1.065,0-1.469l-1.833-1.835v-0.011l-1.094-1.096c-0.412-0.41-0.412-1.089,0-1.506
			l1.094-1.09v-0.018l3.393-3.393c0.555-0.553,0.555-1.461,0-2.021l-4.713-4.711c-0.552-0.549-1.472-0.549-2.021,0l-4.713,4.711
			c-0.557,0.561-0.557,1.469,0,2.021l3.392,3.393v0.018l1.093,1.09c0.414,0.417,0.414,1.096,0,1.506l-1.093,1.096v0.011
			l-1.836,1.835c-0.4,0.404-0.4,1.064,0,1.469l2.201,2.195l0.735,0.736c0.401,0.404,0.401,1.066,0,1.467l-3.433,3.43
			c-0.405,0.406-1.063,0.406-1.472,0l-3.426-3.43c-0.402-0.396-0.408-1.051-0.012-1.455l1.598-1.605l0.574-0.57l0.769-0.768
			c0.405-0.405,0.405-1.065,0-1.469l-3.427-3.429c-0.407-0.405-1.065-0.405-1.473,0l-3.425,3.429c-0.407,0.404-0.407,1.064,0,1.469
			l0.766,0.768l2.163,2.164v0.004c0.402,0.404,0.402,1.062,0,1.463l-3.432,3.43c-0.406,0.406-1.061,0.406-1.465,0l-3.435-3.43
			c-0.396-0.395-0.399-1.043-0.016-1.453l1.489-1.486l0.691-0.691l0.766-0.768c0.406-0.405,0.406-1.065,0-1.469l-0.971-0.979
			l-0.009,0.006l-2.032-2.032c-0.412-0.411-0.412-1.091,0-1.507l1.41-1.408v-0.013l2.732-2.739c0.074-0.064,0.124-0.135,0.179-0.211
			l0.063-0.064c0.557-0.553,0.557-1.461,0-2.021l-4.727-4.726c-0.197-0.208-0.477-0.323-0.765-0.323
			c-0.563,0-1.036,0.445-1.061,1.008v47.157L263.074,79.609 M222.308,71.912l1.648-1.488c0.174-0.174,0.461-0.174,0.637,0
			l1.487,1.488c0.177,0.178,0.177,0.463,0,0.637l-1.487,1.488c-0.176,0.178-0.463,0.178-0.637,0l-1.488-1.488
			C222.292,72.375,222.132,72.089,222.308,71.912z M226.994,63.64l-2.232,2.234c-0.264,0.262-0.693,0.262-0.957,0l-2.232-2.234
			c-0.263-0.264-0.263-0.693,0-0.955l2.232-2.232c0.264-0.264,0.693-0.264,0.957,0l2.232,2.232
			C227.257,62.947,227.257,63.376,226.994,63.64z M233.262,71.912l1.489-1.488c0.176-0.174,0.461-0.174,0.639,0l1.486,1.488
			c0.176,0.178,0.176,0.463,0,0.637l-1.486,1.488c-0.178,0.178-0.463,0.178-0.639,0l-1.489-1.488
			C233.085,72.375,233.085,72.089,233.262,71.912z M237.789,63.64l-2.232,2.234c-0.264,0.262-0.694,0.262-0.957,0l-2.232-2.234
			c-0.264-0.264-0.264-0.693,0-0.955l2.232-2.232c0.263-0.264,0.693-0.264,0.957,0l2.232,2.232
			C238.052,62.947,238.052,63.376,237.789,63.64z M244.056,71.912l1.488-1.488c0.176-0.174,0.463-0.174,0.639,0l1.488,1.488
			c0.174,0.178,0.174,0.463,0,0.637l-1.488,1.488c-0.176,0.178-0.463,0.178-0.639,0l-1.488-1.488
			C243.879,72.375,243.879,72.089,244.056,71.912z M248.568,63.64l-2.234,2.234c-0.263,0.262-0.691,0.262-0.958,0l-2.231-2.234
			c-0.264-0.264-0.264-0.693,0-0.955l2.231-2.232c0.267-0.264,0.695-0.264,0.958,0l2.234,2.232
			C248.829,62.947,248.829,63.376,248.568,63.64z M254.851,71.912l1.488-1.488c0.176-0.174,0.461-0.174,0.637,0l1.488,1.488
			c0.179,0.178,0.179,0.463,0,0.637l-1.488,1.488c-0.176,0.178-0.461,0.178-0.637,0l-1.488-1.488
			C254.675,72.375,254.675,72.089,254.851,71.912z M259.361,63.64l-2.232,2.234c-0.265,0.262-0.691,0.262-0.959,0l-2.229-2.234
			c-0.266-0.264-0.266-0.693,0-0.955l2.229-2.232c0.268-0.264,0.694-0.264,0.959,0l2.232,2.232
			C259.625,62.947,259.625,63.376,259.361,63.64z"/>
		<path fill="#FFFFFF" d="M202.633,133.24c0,0.162,0.069,0.186,0.27,0.186c0.283,0,1.492-0.023,1.626-0.076
			c-0.014-0.201-0.04-0.547-0.04-1.236v-1.754c0.296,0.547,1.185,1.848,1.667,2.551c0.309,0.451,0.498,0.543,0.727,0.543
			c0.9,0,1.613-0.051,1.746-0.104v-0.07c-0.51-0.674-1.732-2.283-2.351-3.291c0.685-0.861,1.707-2.045,2.017-2.48
			c0.189-0.266,0.146-0.398-0.203-0.451c-0.321-0.041-0.873-0.08-1.195-0.08c-0.524,0.773-1.453,1.885-2.407,3.197v-2.586
			c0-0.494-0.026-0.611-0.188-0.611c-0.228,0-1.478,0.066-1.708,0.105c0.026,0.229,0.04,0.652,0.04,1.316V133.24 M216.412,127.562
			c0-0.494-0.054-0.586-0.241-0.586c-0.698,0-1.425,0.039-1.653,0.066c0.013,0.238,0.027,0.65,0.027,1.344v2.025
			c0,2.168,1.088,3.123,3.023,3.123c1.493,0,3.185-0.398,3.185-3.373v-1.312c0-0.852,0.015-1.463,0.041-1.873
			c-0.214,0-1.061,0-1.421,0.039c-0.164,0.014-0.258,0.053-0.258,0.279v3.148c0,1.404-0.553,1.906-1.359,1.906
			c-0.764,0-1.344-0.58-1.344-1.855V127.562z M227.376,133.121l0.174,0.213c0.27,0.041,0.928,0.092,2.272,0.092
			c0.979,0,1.183-0.014,1.356-0.092c0.148-0.105,0.539-0.502,0.66-1.115l-0.027-0.027c-0.363,0.041-0.778,0.053-1.465,0.053
			c-0.658,0-0.954-0.025-1.115-0.062l0.013-4.633c0-0.48-0.04-0.572-0.243-0.572c-0.645,0-1.424,0.053-1.652,0.08
			c0.027,0.225,0.027,0.65,0.027,1.26V133.121z M238.708,133.253c0,0.158,0.067,0.188,0.257,0.188c0.739,0,1.249-0.029,1.653-0.08
			c-0.014-0.213-0.041-0.543-0.041-1.248v-3.859h1.412c0.336-0.07,0.684-0.281,0.805-1.197h-4.166c-1.074,0-1.396-0.014-1.572-0.053
			c-0.121,0.119-0.377,0.504-0.457,0.957c-0.027,0.17,0.053,0.293,0.24,0.293h1.869V133.253z M250.689,127.562
			c0-0.494-0.057-0.586-0.244-0.586c-0.697,0-1.425,0.039-1.654,0.066c0.014,0.238,0.029,0.65,0.029,1.344v2.025
			c0,2.168,1.087,3.123,3.023,3.123c1.49,0,3.186-0.398,3.186-3.373v-1.312c0-0.852,0.012-1.463,0.041-1.873
			c-0.215,0-1.062,0-1.425,0.039c-0.161,0.014-0.255,0.053-0.255,0.279v3.148c0,1.404-0.553,1.906-1.359,1.906
			c-0.765,0-1.342-0.58-1.342-1.855V127.562z M263.478,130.919c0.35-0.029,0.646,0.133,0.859,0.557
			c0.282,0.582,0.619,1.248,0.768,1.459c0.283,0.414,0.578,0.518,1.09,0.518c0.51,0,0.928-0.041,1.224-0.119v-0.055
			c-0.229-0.264-0.511-0.729-0.808-1.283c-0.363-0.678-0.713-1.291-1.062-1.568c0.526-0.238,1.236-0.635,1.236-1.551
			c0-1.156-0.739-1.9-2.741-1.9c-1.143,0-2.303,0.211-2.408,0.252c0.016,0.252,0.016,0.506,0.016,0.996v3.359
			c0,0.836,0,1.418-0.027,1.842c0.2,0,1.344-0.014,1.651-0.037c0.12-0.027,0.202-0.066,0.202-0.293V130.919z M263.478,128.064
			c0.11-0.025,0.322-0.039,0.512-0.039c0.564,0,0.927,0.373,0.927,0.941c0,0.48-0.255,0.691-0.443,0.797
			c-0.188,0.105-0.524,0.145-0.995,0.133V128.064z M274.727,133.228c0,0.174,0.08,0.197,0.241,0.197
			c0.913,0,1.237-0.023,1.668-0.076c-0.014-0.229-0.039-0.559-0.039-1.236v-1.301c0-0.145,0.079-0.291,0.133-0.385
			c0.148-0.238,1.762-2.631,1.949-2.959c0.096-0.158,0.159-0.305-0.055-0.375c-0.281-0.078-0.646-0.117-1.371-0.117
			c-0.2,0.359-0.832,1.566-1.346,2.428c-0.389-0.729-0.683-1.287-1.045-1.896c-0.256-0.439-0.352-0.531-0.553-0.531
			c-0.389,0-1.358,0.092-1.803,0.188v0.051c0.27,0.359,0.93,1.367,1.682,2.484c0.268,0.41,0.363,0.609,0.444,0.781
			c0.065,0.119,0.094,0.238,0.094,0.439V133.228z M208.066,116.128c-0.363,0.148-0.968,0.268-1.602,0.268
			c-1.45,0-2.297-0.838-2.297-2.068c0-1.318,0.82-2.006,1.988-2.006c0.551,0,1.09,0.146,1.305,0.238
			c0.135,0.053,0.242,0,0.322-0.055c0.135-0.08,0.402-0.65,0.363-0.861c-0.201-0.268-0.995-0.584-2.057-0.584
			c-2.084,0-3.925,1.154-3.925,3.398c0,1.895,1.315,3.236,3.912,3.236c0.683,0,1.356-0.172,1.586-0.32
			c0.199-0.197,0.442-0.713,0.442-1.205L208.066,116.128z M213.757,117.285l0.173,0.211c0.27,0.041,0.928,0.094,2.272,0.094
			c1.129,0,1.344-0.012,1.49-0.08c0.311-0.135,0.538-0.529,0.674-1.113l-0.014-0.043c-0.336,0.043-0.929,0.057-1.506,0.057
			c-0.78,0-1.076-0.029-1.223-0.068v-1.432h1.451c0.377,0,0.645-0.066,0.887-1.17h-2.338v-1.328h1.074c0.497,0,0.82,0,0.98-0.08
			c0.15-0.133,0.338-0.33,0.405-1.115h-2.567c-0.631,0.016-1.184,0.096-1.787,0.133c0.027,0.467,0.027,0.814,0.027,1.291V117.285z
			 M223.966,115.718c0,0.863,0,1.447-0.027,1.871c0.537,0.012,1.075-0.012,1.262-0.039c0.15-0.041,0.231-0.094,0.231-0.293v-2.428
			c0-0.729,0-1.354-0.067-2.123c0.51,1.139,0.71,1.566,1.262,2.598c0.62,1.197,0.982,1.781,1.197,2.086
			c0.109,0.16,0.229,0.199,0.416,0.199c0.35,0,1.493-0.133,1.587-0.146v-4.434c0-0.861,0.015-1.447,0.027-1.871
			c-0.204,0-0.929,0.018-1.237,0.041c-0.188,0.027-0.256,0.053-0.256,0.277v1.793c0,0.783,0.015,1.312,0.096,2.322
			c-0.19-0.584-0.473-1.143-0.807-1.766c-0.377-0.744-1.103-2.135-1.357-2.508c-0.082-0.105-0.189-0.16-0.351-0.16
			c-0.149,0-1.734,0.041-2.042,0.078v0.055l0.066,0.252V115.718z M237.569,117.416c0,0.162,0.067,0.186,0.257,0.186
			c0.738,0,1.25-0.023,1.652-0.078c-0.014-0.211-0.04-0.543-0.04-1.246v-3.865h1.412c0.335-0.064,0.684-0.277,0.806-1.195h-4.167
			c-1.075,0-1.399-0.01-1.571-0.053c-0.122,0.121-0.377,0.508-0.46,0.955c-0.026,0.174,0.055,0.293,0.243,0.293h1.868V117.416z
			 M249.016,115.08c0.349-0.025,0.644,0.133,0.858,0.561c0.281,0.584,0.621,1.248,0.768,1.457c0.283,0.412,0.578,0.516,1.087,0.516
			c0.513,0,0.928-0.035,1.223-0.117v-0.053c-0.228-0.266-0.511-0.729-0.805-1.287c-0.362-0.678-0.712-1.285-1.061-1.566
			c0.522-0.238,1.233-0.637,1.233-1.553c0-1.152-0.738-1.898-2.738-1.898c-1.143,0-2.301,0.211-2.408,0.256
			c0.013,0.25,0.013,0.502,0.013,0.992v3.357c0,0.838,0,1.422-0.026,1.846c0.201,0,1.344-0.012,1.652-0.039
			c0.122-0.027,0.204-0.066,0.204-0.293V115.08z M249.016,112.228c0.105-0.029,0.321-0.041,0.511-0.041
			c0.564,0,0.926,0.373,0.926,0.943c0,0.477-0.254,0.689-0.441,0.797c-0.188,0.105-0.526,0.145-0.995,0.129V112.228z
			 M260.179,111.722c0-0.49-0.053-0.584-0.242-0.584c-0.699,0-1.424,0.041-1.654,0.068c0.014,0.238,0.027,0.648,0.027,1.34v2.031
			c0,2.164,1.089,3.117,3.025,3.117c1.492,0,3.185-0.396,3.185-3.367v-1.318c0-0.846,0.016-1.459,0.042-1.871
			c-0.216,0-1.063,0-1.427,0.041c-0.161,0.014-0.255,0.053-0.255,0.277v3.148c0,1.406-0.551,1.91-1.359,1.91
			c-0.764,0-1.342-0.584-1.342-1.859V111.722z M275.735,111.509c-0.39,1.051-1.036,2.748-1.278,3.412l-1.181-3.465
			c-0.081-0.225-0.149-0.318-0.418-0.318c-0.634,0-1.371,0.078-1.8,0.186l0.015,0.279c-0.325,2.164-0.743,4.738-0.93,5.84
			c0.134,0.094,1.198,0.146,1.386,0.146c0.121,0,0.174-0.039,0.199-0.199c0.137-1.459,0.432-3.305,0.474-4.525
			c0.306,1.102,1.103,3.664,1.37,4.619c0.416,0,1.168-0.109,1.49-0.199c0.605-1.926,1.131-3.451,1.347-4.328l0.094,1.555
			c0.095,1.684,0.147,2.24,0.188,2.84c0.015,0.145,0.054,0.238,0.241,0.238c0.295,0,1.52-0.094,1.652-0.146
			c-0.037-0.346-0.188-1.219-0.319-2.281l-0.446-3.705c-0.026-0.25-0.133-0.318-0.281-0.318c-0.377,0-1.613,0.094-1.802,0.186
			V111.509z M202.648,99.88c0,0.861,0,1.445-0.028,1.869c0.54,0.014,1.077-0.012,1.266-0.037c0.146-0.041,0.228-0.092,0.228-0.293
			v-2.43c0-0.729,0-1.354-0.066-2.125c0.51,1.143,0.713,1.568,1.264,2.605c0.617,1.195,0.98,1.775,1.195,2.082
			c0.107,0.16,0.228,0.197,0.418,0.197c0.348,0,1.491-0.129,1.585-0.143v-4.434c0-0.86,0.013-1.443,0.026-1.871
			c-0.201,0-0.928,0.016-1.235,0.039c-0.189,0.027-0.257,0.057-0.257,0.279v1.789c0,0.785,0.013,1.316,0.096,2.324
			c-0.188-0.584-0.471-1.141-0.807-1.764c-0.377-0.744-1.104-2.133-1.357-2.508c-0.082-0.105-0.189-0.16-0.35-0.16
			c-0.148,0-1.734,0.039-2.044,0.08v0.053l0.067,0.252V99.88z M216.417,100.412c0.053,0.174,0.189,0.531,0.377,1.021
			c0.08,0.227,0.188,0.316,0.442,0.316s1.438-0.037,1.614-0.129v-0.055c-0.202-0.451-0.484-1.086-0.955-2.271
			c-0.283-0.754-0.941-2.545-1.52-3.883c-0.027-0.055-0.078-0.109-0.229-0.109c-0.24,0-1.021,0.055-1.814,0.146l0.029,0.213
			c-0.498,1.273-2.006,4.738-2.447,5.93l0.012,0.029c0.322,0.062,0.914,0.129,1.385,0.129c0.229,0,0.322-0.037,0.404-0.211
			c0.094-0.225,0.35-0.861,0.43-1.127H216.417z M214.521,99.207c0.337-1.012,0.594-1.729,0.754-2.234
			c0.147,0.438,0.336,0.943,0.752,2.234H214.521z M224.103,99.244c0.351-0.029,0.646,0.131,0.862,0.557
			c0.282,0.584,0.618,1.248,0.765,1.459c0.283,0.412,0.578,0.52,1.089,0.52s0.929-0.041,1.225-0.119v-0.053
			c-0.229-0.266-0.511-0.73-0.808-1.289c-0.362-0.678-0.713-1.287-1.062-1.568c0.526-0.236,1.237-0.633,1.237-1.549
			c0-1.154-0.74-1.898-2.743-1.898c-1.142,0-2.3,0.213-2.405,0.254c0.014,0.252,0.014,0.502,0.014,0.992v3.359
			c0,0.834,0,1.418-0.027,1.842c0.201,0,1.343-0.012,1.652-0.037c0.12-0.029,0.201-0.064,0.201-0.293V99.244z M224.103,96.393
			c0.11-0.029,0.324-0.041,0.512-0.041c0.564,0,0.928,0.37,0.928,0.942c0,0.475-0.255,0.688-0.444,0.793
			c-0.188,0.107-0.525,0.148-0.995,0.133V96.393z M234.385,95.224c-2.043,0-3.562,1.283-3.562,3.395
			c0,1.729,1.102,3.238,3.466,3.238c2.395,0,3.566-1.553,3.566-3.396c0-2.045-1.522-3.236-3.458-3.236H234.385z M234.279,96.404
			c1.008,0,1.572,0.969,1.572,2.176c0,1.312-0.471,2.098-1.428,2.098c-0.979,0-1.598-0.836-1.598-2.191
			c0-1.459,0.74-2.082,1.439-2.082H234.279z M241.495,101.591c0.579,0.121,1.317,0.188,1.923,0.188c2.191,0,4.422-0.689,4.422-3.279
			c0-1.312-0.551-3.197-3.816-3.197c-1.023,0-2.245,0.188-2.541,0.281c0.026,0.238,0.013,0.41,0.013,1.109V101.591z M243.365,96.498
			c0.239-0.027,0.468-0.027,0.645-0.027c0.912,0,1.827,0.543,1.827,2.004c0,1.938-1.385,2.178-1.922,2.178
			c-0.175,0-0.431-0.029-0.55-0.043V96.498z M254.656,95.224c-2.041,0-3.562,1.283-3.562,3.395c0,1.729,1.103,3.238,3.469,3.238
			c2.394,0,3.564-1.553,3.564-3.396c0-2.045-1.521-3.236-3.457-3.236H254.656z M254.548,96.404c1.008,0,1.575,0.969,1.575,2.176
			c0,1.312-0.472,2.098-1.427,2.098c-0.98,0-1.6-0.836-1.6-2.191c0-1.459,0.738-2.082,1.439-2.082H254.548z M263.058,101.75
			c0.512,0,1.198-0.066,1.414-0.09c0.186-0.039,0.283-0.201,0.361-0.451c0.324-1.033,0.861-2.844,1.035-3.557
			c0.324,1.23,0.821,3.105,1.049,4.098c0.537,0,1.357-0.053,1.424-0.09c0.176-0.08,0.244-0.201,0.324-0.414
			c0.442-1.141,1.033-2.732,1.478-3.873c0.363-0.969,0.513-1.457,0.54-1.535c0.096-0.27,0.011-0.426-0.27-0.469
			c-0.458-0.037-1.102-0.066-1.21-0.066c-0.163,0.639-0.497,1.752-1.237,4.139c-0.309-1.246-0.848-3.104-1.049-3.844
			c-0.068-0.215-0.16-0.295-0.375-0.295c-0.377,0-0.929,0.08-1.426,0.254c0.012,0.041,0.041,0.211-0.013,0.426
			c-0.377,1.312-0.861,3.09-1.009,3.566c-0.322-1.369-0.766-2.895-0.968-3.676c-0.12-0.475-0.229-0.57-0.497-0.57
			c-0.457,0-1.277,0.096-1.668,0.16c0.12,0.305,0.403,1.139,0.66,1.871C262.2,99.005,262.871,101.246,263.058,101.75z
			 M274.175,101.445l0.177,0.215c0.267,0.037,0.927,0.09,2.271,0.09c1.128,0,1.344-0.012,1.492-0.078
			c0.311-0.133,0.537-0.531,0.672-1.115l-0.012-0.041c-0.338,0.041-0.93,0.057-1.508,0.057c-0.78,0-1.074-0.027-1.223-0.068v-1.432
			h1.451c0.377,0,0.646-0.066,0.887-1.17h-2.338v-1.324h1.076c0.497,0,0.82,0,0.979-0.08c0.15-0.134,0.338-0.331,0.404-1.115h-2.565
			c-0.632,0.016-1.186,0.092-1.79,0.133c0.027,0.467,0.027,0.81,0.027,1.285V101.445z"/>
	</g>
</g>
<g>
	<g>
		<path fill="#FFFFFF" d="M30.469,189.239c0-1.39-0.02-1.772-0.04-2.297c0.443-0.101,2.477-0.382,4.129-0.382
			c6.062,0,7.15,3.646,7.15,6.224c0,4.351-3.122,6.687-7.251,6.687c-1.491,0-2.699-0.12-3.988-0.383V189.239z M32.986,197.739
			c0.483,0.12,1.027,0.16,1.571,0.16c1.812,0,4.451-0.865,4.451-5.075c0-3.041-1.732-4.693-4.733-4.693
			c-0.624,0-0.987,0.041-1.289,0.101V197.739z"/>
		<path fill="#FFFFFF" d="M48.071,190.165c2.9,0,4.431,2.055,4.431,4.553c0,2.819-1.833,4.793-4.653,4.793
			c-2.598,0-4.451-1.731-4.451-4.592c0-2.739,1.954-4.754,4.653-4.754H48.071z M47.85,191.656c-1.229,0-1.893,1.269-1.893,3.001
			c0,2.296,0.967,3.363,2.115,3.363c1.249,0,1.873-1.229,1.873-3.081c0-1.712-0.604-3.283-2.074-3.283H47.85z"/>
		<path fill="#FFFFFF" d="M62.734,198.786c0,0.402-0.161,0.504-0.584,0.544c-0.483,0.04-1.108,0.061-1.914,0.061
			c0.021-0.806,0.061-1.974,0.061-3.143v-4.351c-0.544,0.061-1.571,0.061-3.122,0.081c0,1.772,0.081,6.163,0.081,7.291
			c-0.665,0.101-1.994,0.121-2.276,0.121c-0.201,0-0.282-0.021-0.282-0.242c0.081-2.175,0.041-4.632,0.041-7.17
			c-0.786,0-1.168-0.242-1.168-0.665c0.423-0.443,0.665-0.584,1.168-0.906c0-1.651,0.503-3.041,1.833-4.049
			c0.886-0.685,1.893-0.865,2.82-0.865c1.007,0,1.732,0.322,2.115,0.645c0.081,0.181,0.101,0.523,0,0.805
			c-0.161,0.363-0.383,0.604-0.665,0.645c-0.504-0.241-1.067-0.402-1.591-0.402c-1.229,0-2.095,0.927-2.034,3.223
			c0.543,0,1.954,0,3.223-0.021c0.906,0,1.591-0.161,1.914-0.161c0.302,0,0.382,0.182,0.382,1.35V198.786z"/>
		<path fill="#FFFFFF" d="M71.253,193.831c0-1.168-0.624-1.833-1.51-1.833c-0.786,0-1.289,0.363-1.732,0.745v6.022
			c0,0.363-0.06,0.464-0.463,0.504c-0.685,0.101-1.309,0.121-2.034,0.121c0.041-1.067,0.061-2.296,0.061-3.666v-3.304
			c0-0.604-0.081-0.906-0.383-1.087v-0.142c0.202-0.503,0.886-1.027,1.511-1.027c0.766,0,1.067,0.726,1.188,1.35
			c0.826-0.725,1.792-1.35,2.8-1.35c2.558,0,3.001,2.115,3.001,3.687v2.538c0,1.047,0.02,2.154,0.081,2.84
			c-0.463,0.04-1.269,0.161-2.115,0.161c-0.302,0-0.403-0.121-0.403-0.383V193.831z"/>
		<path fill="#FFFFFF" d="M83.841,197.819c0.021,1.067-0.543,1.691-1.691,1.691c-0.826,0-1.37-0.423-1.632-1.127
			c-0.523,0.563-1.41,1.127-2.376,1.127c-1.33,0-2.518-1.007-2.518-2.497c0-2.074,2.417-2.639,3.847-2.961
			c0.363-0.08,0.806-0.141,1.047-0.201v-0.343c0-0.846-0.584-1.53-1.591-1.53c-0.726,0-1.43,0.322-1.874,0.584
			c-0.846,0.241-1.128-0.483-1.128-1.088c0.866-0.624,2.296-1.31,3.646-1.31c1.812,0,3.283,1.209,3.283,3.404
			c0,0.826-0.081,2.356-0.081,3.666c0,0.262,0.242,0.544,0.725,0.544c0.101,0,0.242-0.021,0.342-0.04V197.819z M77.96,196.67
			c0,0.705,0.543,1.108,1.188,1.108c0.564,0,0.886-0.222,1.168-0.524c0.101-0.12,0.161-0.322,0.161-0.685v-1.43
			c-1.752,0.201-2.518,0.846-2.518,1.511V196.67z"/>
		<path fill="#FFFFFF" d="M91.494,193.831c0-1.168-0.625-1.833-1.511-1.833c-0.786,0-1.289,0.363-1.732,0.745v6.022
			c0,0.363-0.061,0.464-0.463,0.504c-0.685,0.101-1.31,0.121-2.035,0.121c0.041-1.067,0.061-2.296,0.061-3.666v-3.304
			c0-0.604-0.081-0.906-0.383-1.087v-0.142c0.202-0.503,0.886-1.027,1.511-1.027c0.765,0,1.067,0.726,1.188,1.35
			c0.826-0.725,1.792-1.35,2.799-1.35c2.558,0,3.001,2.115,3.001,3.687v2.538c0,1.047,0.02,2.154,0.081,2.84
			c-0.463,0.04-1.269,0.161-2.115,0.161c-0.302,0-0.402-0.121-0.402-0.383V193.831z"/>
		<path fill="#FFFFFF" d="M99.43,190.165c0.806,0,1.591,0.202,2.256,0.705c0.02,0.524-0.222,1.31-0.927,1.249
			c-0.403-0.181-0.906-0.322-1.39-0.322c-0.604,0-1.027,0.322-1.027,0.806c0,0.423,0.322,0.665,0.745,0.906
			c0.383,0.222,1.188,0.584,1.652,0.826c1.007,0.563,1.41,1.329,1.41,2.216c0,1.993-1.772,2.96-3.605,2.96
			c-0.785,0-1.631-0.221-2.175-0.563c-0.262-0.182-0.443-0.423-0.443-0.726c0.02-0.423,0.242-0.865,0.523-1.087
			c0.584,0.362,1.45,0.725,2.256,0.725c0.726,0,1.148-0.342,1.148-0.846c0-0.362-0.202-0.624-0.786-0.927
			c-0.503-0.281-1.027-0.523-1.531-0.806c-0.826-0.463-1.41-1.229-1.41-2.296c0-1.793,1.551-2.82,3.283-2.82H99.43z"/>
		<path fill="#FFFFFF" d="M108.271,190.165c2.9,0,4.431,2.055,4.431,4.553c0,2.819-1.833,4.793-4.653,4.793
			c-2.598,0-4.451-1.731-4.451-4.592c0-2.739,1.954-4.754,4.653-4.754H108.271z M108.049,191.656c-1.229,0-1.893,1.269-1.893,3.001
			c0,2.296,0.967,3.363,2.115,3.363c1.249,0,1.873-1.229,1.873-3.081c0-1.712-0.604-3.283-2.074-3.283H108.049z"/>
		<path fill="#FFFFFF" d="M115.823,190.165c0.242,0,0.383,0.142,0.463,0.484c0.443,1.53,0.866,3.182,1.551,6.002
			c0.947-3.082,1.249-3.948,1.631-5.298c-0.02-0.181-0.081-0.423-0.121-0.604c0.322-0.121,1.39-0.363,1.793-0.363
			c0.322,0,0.383,0.222,0.503,0.686c0.363,1.39,1.007,3.604,1.511,5.458c0.685-2.115,1.43-4.713,1.853-6.365
			c0.564,0.021,1.188,0.081,1.672,0.242c0.262,0.121,0.302,0.383,0.08,1.067c-0.846,2.438-1.671,4.713-2.558,7.19
			c-0.141,0.403-0.222,0.564-0.625,0.665c-0.483,0.121-1.108,0.181-1.652,0.181c-0.523-1.974-1.007-3.504-1.611-5.72
			c-0.423,1.35-1.047,3.142-1.611,4.895c-0.121,0.402-0.241,0.563-0.563,0.645c-0.504,0.101-1.128,0.181-1.591,0.181
			c-0.524-1.631-1.148-3.726-1.914-6.021c-0.443-1.33-0.725-2.136-1.007-2.82c0.402-0.161,1.611-0.504,2.175-0.504H115.823z"/>
		<path fill="#FFFFFF" d="M136.004,197.819c0.021,1.067-0.543,1.691-1.691,1.691c-0.826,0-1.37-0.423-1.632-1.127
			c-0.523,0.563-1.41,1.127-2.376,1.127c-1.33,0-2.518-1.007-2.518-2.497c0-2.074,2.417-2.639,3.847-2.961
			c0.363-0.08,0.806-0.141,1.047-0.201v-0.343c0-0.846-0.584-1.53-1.591-1.53c-0.726,0-1.43,0.322-1.874,0.584
			c-0.846,0.241-1.128-0.483-1.128-1.088c0.866-0.624,2.296-1.31,3.646-1.31c1.812,0,3.283,1.209,3.283,3.404
			c0,0.826-0.081,2.356-0.081,3.666c0,0.262,0.242,0.544,0.725,0.544c0.101,0,0.242-0.021,0.342-0.04V197.819z M130.123,196.67
			c0,0.705,0.543,1.108,1.188,1.108c0.564,0,0.886-0.222,1.168-0.524c0.101-0.12,0.161-0.322,0.161-0.685v-1.43
			c-1.752,0.201-2.518,0.846-2.518,1.511V196.67z"/>
		<path fill="#FFFFFF" d="M143.657,193.831c0-1.168-0.624-1.833-1.51-1.833c-0.786,0-1.289,0.363-1.732,0.745v6.022
			c0,0.363-0.06,0.464-0.463,0.504c-0.685,0.101-1.309,0.121-2.034,0.121c0.041-1.067,0.061-2.296,0.061-3.666v-3.304
			c0-0.604-0.081-0.906-0.383-1.087v-0.142c0.202-0.503,0.886-1.027,1.511-1.027c0.766,0,1.067,0.726,1.188,1.35
			c0.826-0.725,1.792-1.35,2.8-1.35c2.558,0,3.001,2.115,3.001,3.687v2.538c0,1.047,0.02,2.154,0.081,2.84
			c-0.463,0.04-1.269,0.161-2.115,0.161c-0.302,0-0.403-0.121-0.403-0.383V193.831z"/>
		<path fill="#FFFFFF" d="M152.821,190.165c2.9,0,4.431,2.055,4.431,4.553c0,2.819-1.833,4.793-4.652,4.793
			c-2.599,0-4.452-1.731-4.452-4.592c0-2.739,1.954-4.754,4.653-4.754H152.821z M152.6,191.656c-1.229,0-1.894,1.269-1.894,3.001
			c0,2.296,0.967,3.363,2.115,3.363c1.249,0,1.874-1.229,1.874-3.081c0-1.712-0.604-3.283-2.075-3.283H152.6z"/>
		<path fill="#FFFFFF" d="M162.71,198.746c0.604-0.927,3.343-5.076,4.209-6.748c-0.584,0-1.833,0-2.82,0
			c-0.927,0-1.289-0.181-1.188-0.624c0.161-0.604,0.443-1.007,0.604-1.128c0.262,0.141,0.685,0.161,1.671,0.161h4.753
			c-0.101,0.826-0.02,0.624-0.302,1.289c-0.262,0.645-2.135,3.907-3.465,6.002c0.746,0.121,3.626,0.101,4.331,0
			c-0.141,0.665-0.403,1.188-0.685,1.37c-0.302,0.181-0.564,0.282-2.619,0.282c-1.954,0-3.484-0.061-4.25-0.202L162.71,198.746z"/>
		<path fill="#FFFFFF" d="M178.822,197.275c0,0.887-0.705,1.712-1.047,1.873c-0.302,0.142-1.168,0.362-1.873,0.362
			c-2.941,0-4.552-1.611-4.552-4.571c0-2.438,1.591-4.774,4.311-4.774c2.558,0,3.545,1.854,3.565,3.465
			c0,0.282-0.02,0.504-0.061,0.665c-0.06,0.302-0.866,0.584-1.692,0.785c-0.503,0.121-2.598,0.141-3.706,0.101
			c0.101,1.772,1.39,2.518,2.76,2.518c0.967,0,1.913-0.302,2.256-0.463L178.822,197.275z M175.438,191.575
			c-0.745,0-1.551,0.705-1.631,2.216c0.826,0.061,2.376,0.04,2.86,0c0.141,0,0.262-0.201,0.262-0.423
			c0.021-0.987-0.443-1.793-1.47-1.793H175.438z"/>
		<path fill="#FFFFFF" d="M188.389,190.165c0.806,0,1.591,0.202,2.256,0.705c0.02,0.524-0.222,1.31-0.927,1.249
			c-0.403-0.181-0.906-0.322-1.39-0.322c-0.604,0-1.027,0.322-1.027,0.806c0,0.423,0.322,0.665,0.745,0.906
			c0.383,0.222,1.188,0.584,1.652,0.826c1.007,0.563,1.41,1.329,1.41,2.216c0,1.993-1.772,2.96-3.605,2.96
			c-0.785,0-1.631-0.221-2.175-0.563c-0.262-0.182-0.443-0.423-0.443-0.726c0.02-0.423,0.242-0.865,0.523-1.087
			c0.584,0.362,1.45,0.725,2.256,0.725c0.726,0,1.148-0.342,1.148-0.846c0-0.362-0.202-0.624-0.786-0.927
			c-0.503-0.281-1.027-0.523-1.531-0.806c-0.826-0.463-1.41-1.229-1.41-2.296c0-1.793,1.551-2.82,3.283-2.82H188.389z
			 M188.832,185.452c0.564,0,1.108,0.303,1.41,0.584c0.141,0.102,0.161,0.182-0.04,0.403c-0.866,0.946-1.752,2.135-2.296,2.8
			c-0.322-0.061-0.524-0.201-0.705-0.322c-0.121-0.081-0.182-0.222-0.041-0.564c0.282-0.785,1.128-2.9,1.652-2.9H188.832z"/>
		<path fill="#FFFFFF" d="M192.638,191.212c0.161-0.463,0.927-1.048,1.471-1.048c0.886,0,1.249,0.847,1.269,2.096
			c0.584-1.37,1.43-2.096,2.498-2.096c0.383,0,0.766,0.182,0.947,0.343c0.101,0.222,0.081,0.806-0.121,1.188
			c-0.08,0.423-0.483,0.906-0.785,0.946c-0.403-0.161-0.625-0.201-0.967-0.201c-0.322,0-0.906,0.242-1.229,1.088
			c-0.121,0.322-0.182,0.544-0.182,0.987c0,1.329,0,3.041,0,4.209c0,0.322-0.04,0.483-0.443,0.564
			c-0.705,0.08-1.33,0.101-2.055,0.101c0.041-1.067,0.061-2.296,0.061-3.666v-3.404c0-0.463-0.121-0.825-0.463-1.026V191.212z"/>
		<path fill="#FFFFFF" d="M204.239,190.165c2.9,0,4.432,2.055,4.432,4.553c0,2.819-1.834,4.793-4.652,4.793
			c-2.599,0-4.452-1.731-4.452-4.592c0-2.739,1.954-4.754,4.653-4.754H204.239z M204.018,191.656c-1.229,0-1.895,1.269-1.895,3.001
			c0,2.296,0.967,3.363,2.115,3.363c1.248,0,1.873-1.229,1.873-3.081c0-1.712-0.604-3.283-2.074-3.283H204.018z"/>
		<path fill="#FFFFFF" d="M216.606,188.071c0-1.169-0.041-1.672-0.102-2.096c0.424-0.16,1.752-0.362,2.156-0.362
			c0.301,0,0.381,0.101,0.381,1.329v10.071c0,0.785,0.264,0.987,0.826,1.107v0.061c-0.1,0.584-0.664,1.329-1.229,1.329
			c-1.107,0-1.551-0.503-1.752-1.087c-0.746,0.584-1.832,1.087-2.598,1.087c-2.357,0-3.969-1.731-3.969-4.391
			c0-2.961,2.217-4.955,5.076-4.955c0.543,0,1.027,0.102,1.209,0.202V188.071z M216.606,191.877
			c-0.201-0.102-0.625-0.222-1.129-0.222c-1.209,0-2.598,0.886-2.598,3.122c0,1.893,1.127,2.9,2.457,2.9
			c0.402,0,0.926-0.142,1.27-0.363V191.877z"/>
		<path fill="#FFFFFF" d="M224.379,194.636c0.906-0.986,3.283-3.827,3.768-4.472c0.342-0.02,0.967,0.041,1.41,0.162
			c0.463,0.141,0.523,0.362,0.08,0.906c-0.826,1.027-1.812,2.095-2.779,3.142c0.543,0.906,2.518,3.626,3.504,4.713l-0.02,0.061
			c-0.344,0.161-1.148,0.282-1.793,0.282s-1.008-0.182-1.49-0.866c-0.725-0.927-1.953-2.417-2.68-3.706v3.928
			c0,0.402-0.141,0.483-0.623,0.523c-0.504,0.061-0.867,0.101-1.873,0.081c0.039-0.826,0.059-2.015,0.059-3.687v-7.553
			c0-1.209-0.039-1.812-0.08-2.235c0.443-0.182,1.732-0.303,2.156-0.303c0.281,0,0.361,0.101,0.361,1.329V194.636z"/>
		<path fill="#FFFFFF" d="M235.579,190.165c2.9,0,4.432,2.055,4.432,4.553c0,2.819-1.834,4.793-4.654,4.793
			c-2.598,0-4.451-1.731-4.451-4.592c0-2.739,1.955-4.754,4.654-4.754H235.579z M235.356,191.656c-1.229,0-1.893,1.269-1.893,3.001
			c0,2.296,0.967,3.363,2.115,3.363c1.248,0,1.873-1.229,1.873-3.081c0-1.712-0.604-3.283-2.074-3.283H235.356z M236.022,185.452
			c0.562,0,1.107,0.303,1.41,0.584c0.141,0.102,0.16,0.182-0.041,0.403c-0.865,0.946-1.752,2.135-2.297,2.8
			c-0.322-0.061-0.523-0.201-0.705-0.322c-0.119-0.081-0.18-0.222-0.039-0.564c0.281-0.785,1.127-2.9,1.65-2.9H236.022z"/>
		<path fill="#FFFFFF" d="M243.129,190.165c0.242,0,0.383,0.142,0.463,0.484c0.443,1.53,0.867,3.182,1.551,6.002
			c0.947-3.082,1.25-3.948,1.633-5.298c-0.021-0.181-0.082-0.423-0.121-0.604c0.322-0.121,1.389-0.363,1.791-0.363
			c0.322,0,0.383,0.222,0.504,0.686c0.363,1.39,1.008,3.604,1.512,5.458c0.684-2.115,1.43-4.713,1.852-6.365
			c0.564,0.021,1.189,0.081,1.672,0.242c0.262,0.121,0.303,0.383,0.082,1.067c-0.846,2.438-1.672,4.713-2.559,7.19
			c-0.141,0.403-0.221,0.564-0.625,0.665c-0.482,0.121-1.107,0.181-1.65,0.181c-0.523-1.974-1.008-3.504-1.611-5.72
			c-0.424,1.35-1.049,3.142-1.611,4.895c-0.121,0.402-0.242,0.563-0.564,0.645c-0.504,0.101-1.129,0.181-1.592,0.181
			c-0.523-1.631-1.148-3.726-1.912-6.021c-0.443-1.33-0.727-2.136-1.008-2.82c0.402-0.161,1.611-0.504,2.176-0.504H243.129z"/>
		<path fill="#FFFFFF" d="M30.126,213.252v-0.101c0.382-0.061,2.115-0.161,2.477-0.161c0.202,0,0.363,0.141,0.564,0.362
			c0.645,0.927,2.296,3.444,3.746,5.68c0.906,1.431,1.651,2.559,2.135,3.586c-0.121-1.552-0.101-2.337-0.101-3.344v-5.62
			c0-0.463,0.141-0.543,0.423-0.584c0.625-0.061,1.168-0.08,1.632-0.08c-0.041,0.866-0.061,2.034-0.061,3.706v8.882
			c-0.181,0.081-1.329,0.322-1.914,0.322c-0.242,0-0.362-0.08-0.503-0.281c-1.047-1.45-2.075-3.021-3.666-5.479
			c-1.067-1.692-1.651-2.82-2.477-4.371c0.121,2.034,0.101,3.082,0.101,4.109v5.276c0,0.423-0.121,0.483-0.443,0.544
			c-0.363,0.061-1.007,0.101-1.611,0.081c0.04-0.806,0.06-1.974,0.06-3.666v-8.358L30.126,213.252z"/>
		<path fill="#FFFFFF" d="M51.354,224.209c0.021,1.067-0.543,1.691-1.691,1.691c-0.826,0-1.37-0.423-1.632-1.127
			c-0.523,0.563-1.41,1.127-2.376,1.127c-1.33,0-2.518-1.007-2.518-2.497c0-2.074,2.417-2.639,3.847-2.961
			c0.363-0.08,0.806-0.141,1.047-0.201v-0.343c0-0.846-0.584-1.53-1.591-1.53c-0.726,0-1.43,0.322-1.874,0.584
			c-0.846,0.241-1.128-0.483-1.128-1.088c0.866-0.624,2.296-1.31,3.646-1.31c1.812,0,3.283,1.209,3.283,3.404
			c0,0.826-0.081,2.356-0.081,3.666c0,0.262,0.242,0.544,0.725,0.544c0.101,0,0.242-0.021,0.342-0.04V224.209z M45.474,223.061
			c0,0.705,0.543,1.108,1.188,1.108c0.564,0,0.886-0.222,1.168-0.524c0.101-0.12,0.161-0.322,0.161-0.685v-1.43
			c-1.752,0.201-2.518,0.846-2.518,1.511V223.061z"/>
		<path fill="#FFFFFF" d="M52.865,217.603c0.161-0.463,0.927-1.048,1.47-1.048c0.887,0,1.249,0.847,1.269,2.096
			c0.584-1.37,1.43-2.096,2.498-2.096c0.383,0,0.766,0.182,0.947,0.343c0.101,0.222,0.081,0.806-0.121,1.188
			c-0.081,0.423-0.483,0.906-0.786,0.946c-0.403-0.161-0.625-0.201-0.967-0.201c-0.322,0-0.907,0.242-1.229,1.088
			c-0.121,0.322-0.181,0.544-0.181,0.987c0,1.329,0,3.041,0,4.209c0,0.322-0.04,0.483-0.443,0.564
			c-0.705,0.08-1.33,0.101-2.055,0.101c0.041-1.067,0.061-2.296,0.061-3.666v-3.404c0-0.463-0.121-0.825-0.463-1.026V217.603z"/>
		<path fill="#FFFFFF" d="M64.465,216.555c2.9,0,4.431,2.055,4.431,4.553c0,2.819-1.833,4.793-4.652,4.793
			c-2.599,0-4.452-1.731-4.452-4.592c0-2.739,1.954-4.754,4.653-4.754H64.465z M64.244,218.046c-1.229,0-1.894,1.269-1.894,3.001
			c0,2.296,0.967,3.363,2.115,3.363c1.249,0,1.874-1.229,1.874-3.081c0-1.712-0.604-3.283-2.075-3.283H64.244z"/>
		<path fill="#FFFFFF" d="M76.832,214.461c0-1.169-0.041-1.672-0.101-2.096c0.423-0.16,1.752-0.362,2.155-0.362
			c0.302,0,0.383,0.101,0.383,1.329v10.071c0,0.785,0.262,0.987,0.826,1.107v0.061c-0.101,0.584-0.665,1.329-1.229,1.329
			c-1.108,0-1.551-0.503-1.752-1.087c-0.745,0.584-1.833,1.087-2.598,1.087c-2.356,0-3.968-1.731-3.968-4.391
			c0-2.961,2.215-4.955,5.075-4.955c0.544,0,1.027,0.102,1.209,0.202V214.461z M76.832,218.268
			c-0.202-0.102-0.625-0.222-1.128-0.222c-1.209,0-2.599,0.886-2.599,3.122c0,1.893,1.128,2.9,2.458,2.9
			c0.403,0,0.926-0.142,1.269-0.363V218.268z"/>
		<path fill="#FFFFFF" d="M86.176,216.555c2.9,0,4.431,2.055,4.431,4.553c0,2.819-1.833,4.793-4.652,4.793
			c-2.599,0-4.452-1.731-4.452-4.592c0-2.739,1.954-4.754,4.653-4.754H86.176z M85.955,218.046c-1.229,0-1.894,1.269-1.894,3.001
			c0,2.296,0.967,3.363,2.115,3.363c1.249,0,1.874-1.229,1.874-3.081c0-1.712-0.604-3.283-2.075-3.283H85.955z"/>
		<path fill="#FFFFFF" d="M93.729,216.555c0.242,0,0.383,0.142,0.463,0.484c0.443,1.53,0.866,3.182,1.551,6.002
			c0.947-3.082,1.249-3.948,1.631-5.298c-0.02-0.181-0.081-0.423-0.121-0.604c0.322-0.121,1.39-0.363,1.793-0.363
			c0.322,0,0.383,0.222,0.503,0.686c0.363,1.39,1.007,3.604,1.511,5.458c0.685-2.115,1.43-4.713,1.853-6.365
			c0.564,0.021,1.188,0.081,1.672,0.242c0.262,0.121,0.302,0.383,0.08,1.067c-0.846,2.438-1.671,4.713-2.558,7.19
			c-0.141,0.403-0.222,0.564-0.625,0.665c-0.483,0.121-1.108,0.181-1.652,0.181c-0.523-1.974-1.007-3.504-1.611-5.72
			c-0.423,1.35-1.047,3.142-1.611,4.895c-0.121,0.402-0.241,0.563-0.563,0.645c-0.504,0.101-1.128,0.181-1.591,0.181
			c-0.524-1.631-1.148-3.726-1.914-6.021c-0.443-1.33-0.725-2.136-1.007-2.82c0.402-0.161,1.611-0.504,2.175-0.504H93.729z"/>
		<path fill="#FFFFFF" d="M113.286,223.666c0,0.887-0.705,1.712-1.047,1.873c-0.302,0.142-1.168,0.362-1.873,0.362
			c-2.941,0-4.552-1.611-4.552-4.571c0-2.438,1.591-4.774,4.311-4.774c2.558,0,3.545,1.854,3.565,3.465
			c0,0.282-0.02,0.504-0.061,0.665c-0.061,0.302-0.866,0.584-1.692,0.785c-0.503,0.121-2.598,0.141-3.706,0.101
			c0.101,1.772,1.39,2.518,2.759,2.518c0.967,0,1.914-0.302,2.256-0.463L113.286,223.666z M109.902,217.965
			c-0.745,0-1.551,0.705-1.631,2.216c0.826,0.061,2.376,0.04,2.86,0c0.141,0,0.262-0.201,0.262-0.423
			c0.02-0.987-0.443-1.793-1.471-1.793H109.902z"/>
		<path fill="#FFFFFF" d="M118.944,216.555c0.463,0,1.148,0.081,1.651,0.222c0.483,0.101,1.128,0.263,1.511,0.263
			c0.604,0,1.269-0.121,1.551-0.222c0.061,0.12,0.101,0.322,0.101,0.503c0,0.726-0.342,1.088-1.027,1.168
			c-0.141,0.021-0.363,0.021-0.584,0.041c0.161,0.383,0.242,0.806,0.242,1.147c0,2.055-1.611,3.062-3.525,3.062
			c-0.322,0-0.544-0.02-0.725-0.08c-0.141,0.141-0.322,0.322-0.322,0.483c0,0.282,0.201,0.503,0.906,0.563
			c0.806,0.061,1.611,0.102,2.397,0.161c1.853,0.121,2.558,1.169,2.558,2.356c0,2.377-2.377,3.747-4.895,3.747
			c-2.417,0-3.988-1.148-3.988-2.659c0-0.866,0.947-1.47,1.854-1.893c-0.604-0.242-1.209-0.847-1.229-1.713
			c0-0.08,0.041-0.181,0.181-0.262c0.383-0.241,1.007-0.645,1.39-1.047c-0.927-0.343-1.792-1.148-1.792-2.619
			c0-1.934,1.611-3.223,3.726-3.223H118.944z M116.95,226.989c0,0.887,1.108,1.41,2.417,1.41c1.229,0,2.236-0.483,2.236-1.369
			c0-0.524-0.302-0.987-1.41-1.129c-0.625-0.101-1.37-0.141-1.894-0.12c-0.242,0-0.544,0.061-0.705,0.161
			c-0.362,0.201-0.645,0.544-0.645,1.027V226.989z M118.844,217.865c-0.846,0-1.35,0.826-1.35,1.772c0,1.128,0.584,1.812,1.45,1.812
			c0.826,0,1.35-0.765,1.35-1.752c0-0.887-0.343-1.833-1.43-1.833H118.844z"/>
		<path fill="#FFFFFF" d="M129.115,216.555c2.9,0,4.431,2.055,4.431,4.553c0,2.819-1.833,4.793-4.652,4.793
			c-2.599,0-4.452-1.731-4.452-4.592c0-2.739,1.954-4.754,4.653-4.754H129.115z M128.894,218.046c-1.229,0-1.894,1.269-1.894,3.001
			c0,2.296,0.967,3.363,2.115,3.363c1.249,0,1.874-1.229,1.874-3.081c0-1.712-0.604-3.283-2.075-3.283H128.894z"/>
		<path fill="#FFFFFF" d="M150.062,223.686c-0.061,0.685-0.322,1.269-0.665,1.591c-0.503,0.322-1.571,0.685-2.92,0.685
			c-4.592,0-7.07-2.618-7.07-6.465c0-4.17,3.163-6.728,7.15-6.728c1.914,0,3.384,0.645,3.706,1.007
			c0.041,0.686-0.423,1.37-1.067,1.27c-0.604-0.262-1.551-0.544-2.659-0.544c-2.437,0-4.431,1.591-4.431,4.813
			c0,2.739,1.752,4.834,4.955,4.834c1.349,0,2.417-0.342,2.94-0.504L150.062,223.686z"/>
		<path fill="#FFFFFF" d="M158.783,223.666c0,0.887-0.705,1.712-1.047,1.873c-0.302,0.142-1.168,0.362-1.873,0.362
			c-2.941,0-4.552-1.611-4.552-4.571c0-2.438,1.591-4.774,4.311-4.774c2.558,0,3.545,1.854,3.565,3.465
			c0,0.282-0.02,0.504-0.061,0.665c-0.061,0.302-0.866,0.584-1.692,0.785c-0.503,0.121-2.598,0.141-3.706,0.101
			c0.101,1.772,1.39,2.518,2.759,2.518c0.967,0,1.914-0.302,2.256-0.463L158.783,223.666z M155.399,217.965
			c-0.745,0-1.551,0.705-1.631,2.216c0.826,0.061,2.376,0.04,2.86,0c0.141,0,0.262-0.201,0.262-0.423
			c0.02-0.987-0.443-1.793-1.471-1.793H155.399z"/>
		<path fill="#FFFFFF" d="M166.838,220.221c0-1.168-0.624-1.833-1.51-1.833c-0.786,0-1.289,0.363-1.732,0.745v6.022
			c0,0.363-0.06,0.464-0.463,0.504c-0.685,0.101-1.309,0.121-2.034,0.121c0.041-1.067,0.061-2.296,0.061-3.666v-3.304
			c0-0.604-0.081-0.906-0.383-1.087v-0.142c0.202-0.503,0.886-1.027,1.511-1.027c0.766,0,1.067,0.726,1.188,1.35
			c0.826-0.725,1.792-1.35,2.8-1.35c2.558,0,3.001,2.115,3.001,3.687v2.538c0,1.047,0.02,2.154,0.081,2.84
			c-0.463,0.04-1.269,0.161-2.115,0.161c-0.302,0-0.403-0.121-0.403-0.383V220.221z"/>
		<path fill="#FFFFFF" d="M177.352,223.847c0.101,0.483,0.02,1.107-0.343,1.409c-0.483,0.424-1.329,0.645-2.215,0.645
			c-2.055,0-2.719-1.309-2.719-2.698c0-0.866,0-2.699,0-4.814c-0.745,0-1.128-0.362-1.128-0.563
			c0.282-0.584,1.914-2.034,2.256-2.316s0.725-0.523,1.511-0.604c-0.081,0.604-0.121,1.329-0.121,1.894c0.786,0,2.679,0,2.981,0
			c-0.242,1.39-0.685,1.45-1.087,1.49c-0.463,0.041-1.108,0.081-1.954,0.081c-0.08,1.651-0.06,3.605,0.021,4.451
			c0.101,0.987,0.645,1.35,1.329,1.35c0.604,0,1.168-0.202,1.41-0.362L177.352,223.847z"/>
		<path fill="#FFFFFF" d="M178.741,217.603c0.161-0.463,0.927-1.048,1.47-1.048c0.887,0,1.249,0.847,1.269,2.096
			c0.584-1.37,1.43-2.096,2.498-2.096c0.383,0,0.766,0.182,0.947,0.343c0.101,0.222,0.081,0.806-0.121,1.188
			c-0.081,0.423-0.483,0.906-0.786,0.946c-0.403-0.161-0.625-0.201-0.967-0.201c-0.322,0-0.907,0.242-1.229,1.088
			c-0.121,0.322-0.181,0.544-0.181,0.987c0,1.329,0,3.041,0,4.209c0,0.322-0.04,0.483-0.443,0.564
			c-0.705,0.08-1.33,0.101-2.055,0.101c0.041-1.067,0.061-2.296,0.061-3.666v-3.404c0-0.463-0.121-0.825-0.463-1.026V217.603z"/>
		<path fill="#FFFFFF" d="M186.555,219.174c0-1.249-0.041-1.854-0.081-2.256c0.443-0.121,1.611-0.242,2.135-0.242
			c0.302,0,0.383,0.101,0.383,1.27c0,1.329,0,2.819,0,4.229c0,1.551,0.927,1.853,1.651,1.853c0.665,0,1.188-0.322,1.511-0.624
			v-5.801c0-0.584,0.061-0.705,0.423-0.785c0.887-0.101,1.39-0.142,2.075-0.142c0,0.423-0.06,1.873-0.06,3.626v3.081
			c0,0.806,0.262,1.008,0.806,1.108v0.12c-0.081,0.604-0.685,1.289-1.209,1.289c-1.087,0-1.53-0.523-1.752-1.289
			c-0.524,0.484-1.128,0.807-1.531,1.008c-0.403,0.161-0.806,0.281-1.289,0.281c-2.155,0-3.062-1.43-3.062-3.403V219.174z"/>
		<path fill="#FFFFFF" d="M199.969,225.116c0,0.362-0.061,0.483-0.463,0.564c-0.685,0.08-1.31,0.101-2.035,0.101
			c0.041-1.067,0.061-2.296,0.061-3.666v-3.384c0-0.544-0.081-0.846-0.383-1.027v-0.141c0.222-0.504,0.907-1.008,1.491-1.008
			c0.846,0,1.067,0.726,1.208,1.35c0.806-0.685,1.873-1.35,2.92-1.35c1.311,0,2.016,0.625,2.438,1.471
			c0.785-0.725,1.975-1.471,3.082-1.471c2.275,0,2.881,1.954,2.881,3.485v2.739c0,1.047,0.02,2.154,0.061,2.84
			c-0.465,0.04-1.27,0.161-2.115,0.161c-0.262,0-0.383-0.121-0.383-0.383v-5.177c0-1.128-0.523-1.833-1.512-1.833
			c-0.705,0-1.229,0.383-1.65,0.766v6.002c0,0.363-0.041,0.464-0.463,0.524c-0.705,0.101-1.311,0.101-2.035,0.101
			c0.041-1.067,0.061-2.296,0.061-3.666v-1.894c0-1.147-0.523-1.833-1.47-1.833c-0.665,0-1.249,0.343-1.692,0.766V225.116z"/>
		<path fill="#FFFFFF" d="M218.499,215.709c0-1.35-0.021-2.175-0.061-2.558c0.383-0.061,1.752-0.161,2.176-0.161
			c0.361,0,0.402,0.182,0.402,1.067v5.177c1.51-1.732,3.887-4.532,5.277-6.325c0.361,0,0.846,0.021,1.389,0.121
			c0.727,0.121,0.705,0.403,0.283,0.967c-0.928,1.128-3.043,3.484-4.371,5.035c1.006,1.491,3.867,5.076,5.176,6.445v0.061
			c-0.182,0.121-1.107,0.282-2.014,0.282c-0.625,0-0.967-0.161-1.592-0.906c-0.986-1.168-3.787-4.754-4.148-5.378v3.605
			c0,1.41,0.039,2.074,0.061,2.478c-0.322,0.101-1.691,0.161-2.135,0.161c-0.303,0-0.443-0.061-0.443-0.383V215.709z"/>
		<path fill="#FFFFFF" d="M229.938,219.174c0-1.249-0.041-1.854-0.08-2.256c0.443-0.121,1.611-0.242,2.135-0.242
			c0.303,0,0.383,0.101,0.383,1.27c0,1.329,0,2.819,0,4.229c0,1.551,0.926,1.853,1.65,1.853c0.666,0,1.189-0.322,1.512-0.624v-5.801
			c0-0.584,0.061-0.705,0.422-0.785c0.887-0.101,1.391-0.142,2.076-0.142c0,0.423-0.061,1.873-0.061,3.626v3.081
			c0,0.806,0.262,1.008,0.805,1.108v0.12c-0.08,0.604-0.684,1.289-1.209,1.289c-1.086,0-1.529-0.523-1.752-1.289
			c-0.523,0.484-1.127,0.807-1.531,1.008c-0.402,0.161-0.805,0.281-1.289,0.281c-2.154,0-3.061-1.43-3.061-3.403V219.174z"/>
		<path fill="#FFFFFF" d="M240.813,214.501c0-1.188-0.039-1.732-0.08-2.136c0.402-0.181,1.713-0.362,2.135-0.362
			c0.303,0,0.383,0.101,0.383,1.31V223c0,0.987,0.041,2.075,0.082,2.659c-0.424,0.101-1.955,0.161-2.236,0.161
			c-0.201,0-0.283-0.061-0.283-0.262V214.501z"/>
		<path fill="#FFFFFF" d="M251.407,223.847c0.102,0.483,0.021,1.107-0.342,1.409c-0.482,0.424-1.33,0.645-2.215,0.645
			c-2.055,0-2.719-1.309-2.719-2.698c0-0.866,0-2.699,0-4.814c-0.746,0-1.129-0.362-1.129-0.563
			c0.281-0.584,1.914-2.034,2.256-2.316s0.725-0.523,1.51-0.604c-0.08,0.604-0.119,1.329-0.119,1.894c0.785,0,2.678,0,2.98,0
			c-0.242,1.39-0.686,1.45-1.088,1.49c-0.463,0.041-1.107,0.081-1.953,0.081c-0.082,1.651-0.061,3.605,0.02,4.451
			c0.102,0.987,0.645,1.35,1.33,1.35c0.604,0,1.168-0.202,1.408-0.362L251.407,223.847z"/>
		<path fill="#FFFFFF" d="M253.079,219.174c0-1.249-0.039-1.854-0.08-2.256c0.443-0.121,1.611-0.242,2.135-0.242
			c0.303,0,0.383,0.101,0.383,1.27c0,1.329,0,2.819,0,4.229c0,1.551,0.928,1.853,1.652,1.853c0.664,0,1.188-0.322,1.51-0.624v-5.801
			c0-0.584,0.061-0.705,0.424-0.785c0.887-0.101,1.389-0.142,2.074-0.142c0,0.423-0.061,1.873-0.061,3.626v3.081
			c0,0.806,0.262,1.008,0.807,1.108v0.12c-0.082,0.604-0.686,1.289-1.209,1.289c-1.088,0-1.531-0.523-1.752-1.289
			c-0.523,0.484-1.129,0.807-1.531,1.008c-0.402,0.161-0.807,0.281-1.289,0.281c-2.154,0-3.062-1.43-3.062-3.403V219.174z"/>
		<path fill="#FFFFFF" d="M263.592,217.603c0.162-0.463,0.928-1.048,1.471-1.048c0.887,0,1.25,0.847,1.27,2.096
			c0.584-1.37,1.43-2.096,2.498-2.096c0.383,0,0.764,0.182,0.945,0.343c0.102,0.222,0.082,0.806-0.121,1.188
			c-0.08,0.423-0.482,0.906-0.785,0.946c-0.402-0.161-0.623-0.201-0.967-0.201c-0.322,0-0.906,0.242-1.229,1.088
			c-0.121,0.322-0.182,0.544-0.182,0.987c0,1.329,0,3.041,0,4.209c0,0.322-0.039,0.483-0.443,0.564
			c-0.703,0.08-1.328,0.101-2.053,0.101c0.039-1.067,0.061-2.296,0.061-3.666v-3.404c0-0.463-0.121-0.825-0.465-1.026V217.603z"/>
		<path fill="#FFFFFF" d="M271.629,228.943c0.604-0.665,1.812-2.337,2.557-3.746c-0.1-0.142-0.322-0.564-0.443-0.887
			c-0.383-0.967-2.135-5.6-2.9-7.211c0.564-0.281,1.551-0.544,2.055-0.544c0.363,0,0.463,0.242,0.605,0.564
			c0.502,1.31,1.469,4.129,1.953,5.64c0.725-1.833,1.592-4.773,1.854-6.204c0.402,0.021,0.885,0.081,1.389,0.222
			c0.484,0.121,0.545,0.383,0.424,0.866c-0.523,2.095-1.35,4.653-2.518,7.09c-1.289,2.679-2.881,5.035-3.344,5.035
			c-0.705,0-1.41-0.442-1.631-0.745V228.943z"/>
		<path fill="#FFFFFF" d="M31.416,242.946c0.242,0,0.382,0.141,0.463,0.482c0.443,1.531,0.866,3.183,1.551,6.003
			c0.946-3.082,1.249-3.948,1.631-5.298c-0.02-0.181-0.081-0.423-0.121-0.604c0.322-0.121,1.39-0.363,1.792-0.363
			c0.322,0,0.382,0.222,0.503,0.686c0.362,1.39,1.007,3.605,1.511,5.458c0.685-2.115,1.43-4.713,1.853-6.364
			c0.564,0.02,1.188,0.08,1.671,0.241c0.262,0.121,0.302,0.383,0.081,1.067c-0.846,2.438-1.672,4.713-2.558,7.19
			c-0.141,0.403-0.222,0.564-0.625,0.665c-0.483,0.121-1.108,0.182-1.651,0.182c-0.524-1.975-1.007-3.505-1.611-5.721
			c-0.423,1.35-1.048,3.143-1.611,4.895c-0.121,0.402-0.242,0.563-0.564,0.645c-0.503,0.101-1.128,0.182-1.591,0.182
			c-0.524-1.632-1.148-3.727-1.914-6.022c-0.443-1.33-0.725-2.136-1.007-2.82c0.403-0.161,1.611-0.503,2.176-0.503H31.416z"/>
		<path fill="#FFFFFF" d="M48.192,243.993c0.161-0.463,0.927-1.047,1.471-1.047c0.886,0,1.249,0.846,1.269,2.094
			c0.584-1.369,1.43-2.094,2.498-2.094c0.383,0,0.766,0.181,0.947,0.342c0.101,0.222,0.081,0.806-0.121,1.188
			c-0.08,0.423-0.483,0.906-0.785,0.946c-0.403-0.161-0.625-0.201-0.967-0.201c-0.322,0-0.906,0.242-1.229,1.088
			c-0.121,0.322-0.182,0.544-0.182,0.986c0,1.33,0,3.042,0,4.21c0,0.322-0.04,0.483-0.443,0.564c-0.705,0.08-1.33,0.101-2.055,0.101
			c0.041-1.067,0.061-2.297,0.061-3.666V245.1c0-0.463-0.121-0.825-0.463-1.027V243.993z"/>
		<path fill="#FFFFFF" d="M63.52,250.599c0.02,1.067-0.544,1.692-1.692,1.692c-0.826,0-1.369-0.424-1.631-1.129
			c-0.523,0.564-1.41,1.129-2.376,1.129c-1.33,0-2.518-1.008-2.518-2.498c0-2.074,2.417-2.639,3.847-2.961
			c0.363-0.08,0.806-0.141,1.047-0.201v-0.343c0-0.846-0.584-1.53-1.591-1.53c-0.725,0-1.43,0.322-1.873,0.584
			c-0.846,0.241-1.128-0.483-1.128-1.088c0.866-0.624,2.296-1.309,3.646-1.309c1.813,0,3.283,1.208,3.283,3.403
			c0,0.826-0.081,2.356-0.081,3.666c0,0.262,0.242,0.544,0.725,0.544c0.101,0,0.242-0.021,0.343-0.041V250.599z M57.638,249.451
			c0,0.705,0.544,1.108,1.188,1.108c0.564,0,0.886-0.222,1.168-0.523c0.101-0.121,0.161-0.322,0.161-0.686v-1.43
			c-1.752,0.201-2.518,0.846-2.518,1.511V249.451z"/>
		<path fill="#FFFFFF" d="M67.93,251.505c0,0.362-0.061,0.483-0.463,0.564c-0.685,0.08-1.31,0.101-2.035,0.101
			c0.041-1.067,0.061-2.297,0.061-3.666v-3.384c0-0.544-0.081-0.846-0.383-1.027v-0.141c0.222-0.504,0.907-1.007,1.491-1.007
			c0.846,0,1.067,0.725,1.208,1.349c0.806-0.685,1.873-1.349,2.92-1.349c1.309,0,2.014,0.624,2.437,1.47
			c0.786-0.725,1.974-1.47,3.082-1.47c2.276,0,2.88,1.953,2.88,3.484v2.739c0,1.047,0.02,2.155,0.061,2.84
			c-0.463,0.04-1.269,0.161-2.115,0.161c-0.262,0-0.383-0.121-0.383-0.383v-5.177c0-1.128-0.523-1.833-1.511-1.833
			c-0.705,0-1.229,0.383-1.651,0.766v6.002c0,0.363-0.041,0.464-0.463,0.524c-0.705,0.101-1.309,0.101-2.034,0.101
			c0.04-1.067,0.06-2.297,0.06-3.666v-1.894c0-1.147-0.523-1.833-1.47-1.833c-0.665,0-1.249,0.343-1.692,0.766V251.505z"/>
		<path fill="#FFFFFF" d="M89.278,250.599c0.021,1.067-0.543,1.692-1.691,1.692c-0.826,0-1.37-0.424-1.632-1.129
			c-0.523,0.564-1.41,1.129-2.376,1.129c-1.33,0-2.518-1.008-2.518-2.498c0-2.074,2.417-2.639,3.847-2.961
			c0.363-0.08,0.806-0.141,1.047-0.201v-0.343c0-0.846-0.584-1.53-1.591-1.53c-0.726,0-1.43,0.322-1.874,0.584
			c-0.846,0.241-1.128-0.483-1.128-1.088c0.866-0.624,2.296-1.309,3.646-1.309c1.812,0,3.283,1.208,3.283,3.403
			c0,0.826-0.081,2.356-0.081,3.666c0,0.262,0.242,0.544,0.725,0.544c0.101,0,0.242-0.021,0.342-0.041V250.599z M83.397,249.451
			c0,0.705,0.543,1.108,1.188,1.108c0.564,0,0.886-0.222,1.168-0.523c0.101-0.121,0.161-0.322,0.161-0.686v-1.43
			c-1.752,0.201-2.518,0.846-2.518,1.511V249.451z"/>
		<path fill="#FFFFFF" d="M98.121,250.156c-0.02,0.584-0.302,1.289-0.665,1.611c-0.584,0.362-1.43,0.524-2.276,0.524
			c-2.618,0-4.652-1.511-4.652-4.472c0-2.9,2.175-4.874,4.975-4.874c1.37,0,2.336,0.423,2.699,0.765c0,0.524-0.262,1.27-0.967,1.249
			c-0.463-0.182-1.088-0.322-1.632-0.322c-1.45,0-2.578,1.007-2.578,2.84c0,2.195,1.491,3.001,2.88,3.001
			c0.866,0,1.631-0.161,2.175-0.383L98.121,250.156z"/>
		<path fill="#FFFFFF" d="M102.369,244.133c0.806-0.664,1.672-1.188,2.8-1.188c1.893,0,2.88,1.449,2.88,3.585v2.679
			c0,1.027,0.021,2.115,0.061,2.8c-0.443,0.061-1.249,0.161-2.095,0.161c-0.302,0-0.403-0.121-0.403-0.423c0-1.431,0-3.384,0-5.116
			c0-1.188-0.625-1.854-1.551-1.854c-0.645,0-1.249,0.322-1.692,0.686v6.042c0,0.362-0.061,0.483-0.463,0.564
			c-0.685,0.08-1.309,0.101-2.034,0.101c0.041-1.067,0.061-2.276,0.061-3.646v-7.594c0-1.208-0.041-1.752-0.081-2.175
			c0.423-0.162,1.712-0.363,2.155-0.363c0.282,0,0.362,0.101,0.362,1.33V244.133z"/>
		<path fill="#FFFFFF" d="M117.736,255.674c0,0.343-0.04,0.464-0.463,0.544c-0.685,0.081-1.289,0.101-2.035,0.101
			c0.041-0.785,0.061-1.913,0.061-3.282v-7.916c0-0.523-0.101-0.906-0.383-1.007v-0.142c0.242-0.523,0.846-1.026,1.531-1.026
			c0.705,0,1.007,0.624,1.128,1.188c1.108-0.765,1.954-1.188,2.84-1.188c2.095,0,3.605,1.712,3.605,4.249
			c0,3.103-2.256,5.097-4.854,5.097c-0.564,0-1.087-0.142-1.43-0.343V255.674z M117.736,250.499
			c0.282,0.121,0.766,0.222,1.148,0.222c1.269,0,2.578-0.947,2.578-3.183c0-1.551-0.826-2.699-2.075-2.699
			c-0.665,0-1.309,0.322-1.652,0.564V250.499z"/>
		<path fill="#FFFFFF" d="M125.793,243.993c0.161-0.463,0.927-1.047,1.471-1.047c0.886,0,1.249,0.846,1.269,2.094
			c0.584-1.369,1.43-2.094,2.498-2.094c0.383,0,0.766,0.181,0.947,0.342c0.101,0.222,0.081,0.806-0.121,1.188
			c-0.08,0.423-0.483,0.906-0.785,0.946c-0.403-0.161-0.625-0.201-0.967-0.201c-0.322,0-0.906,0.242-1.229,1.088
			c-0.121,0.322-0.182,0.544-0.182,0.986c0,1.33,0,3.042,0,4.21c0,0.322-0.04,0.483-0.443,0.564c-0.705,0.08-1.33,0.101-2.055,0.101
			c0.041-1.067,0.061-2.297,0.061-3.666V245.1c0-0.463-0.121-0.825-0.463-1.027V243.993z"/>
		<path fill="#FFFFFF" d="M137.394,242.946c2.9,0,4.431,2.054,4.431,4.552c0,2.819-1.833,4.794-4.653,4.794
			c-2.598,0-4.451-1.732-4.451-4.593c0-2.739,1.954-4.753,4.653-4.753H137.394z M137.172,244.436c-1.229,0-1.893,1.269-1.893,3.001
			c0,2.296,0.967,3.363,2.115,3.363c1.249,0,1.873-1.229,1.873-3.081c0-1.713-0.604-3.283-2.074-3.283H137.172z"/>
		<path fill="#FFFFFF" d="M147.242,242.946c0.463,0,1.148,0.08,1.651,0.221c0.483,0.102,1.128,0.262,1.511,0.262
			c0.604,0,1.269-0.12,1.551-0.221c0.061,0.12,0.101,0.322,0.101,0.503c0,0.726-0.342,1.088-1.027,1.169
			c-0.141,0.02-0.363,0.02-0.584,0.04c0.161,0.383,0.242,0.806,0.242,1.147c0,2.055-1.611,3.062-3.525,3.062
			c-0.322,0-0.544-0.02-0.725-0.08c-0.141,0.141-0.322,0.322-0.322,0.483c0,0.282,0.201,0.504,0.906,0.563
			c0.806,0.061,1.611,0.101,2.397,0.161c1.853,0.121,2.558,1.169,2.558,2.357c0,2.376-2.377,3.746-4.895,3.746
			c-2.417,0-3.988-1.148-3.988-2.659c0-0.866,0.947-1.47,1.854-1.894c-0.604-0.241-1.209-0.846-1.229-1.712
			c0-0.08,0.041-0.181,0.181-0.262c0.383-0.241,1.007-0.645,1.39-1.047c-0.927-0.343-1.792-1.148-1.792-2.618
			c0-1.934,1.611-3.223,3.726-3.223H147.242z M145.248,253.378c0,0.887,1.108,1.41,2.417,1.41c1.229,0,2.236-0.483,2.236-1.37
			c0-0.523-0.302-0.986-1.41-1.127c-0.625-0.102-1.37-0.142-1.894-0.121c-0.242,0-0.544,0.061-0.705,0.161
			c-0.362,0.201-0.645,0.544-0.645,1.027V253.378z M147.142,244.254c-0.846,0-1.35,0.826-1.35,1.772c0,1.128,0.584,1.812,1.45,1.812
			c0.826,0,1.35-0.765,1.35-1.752c0-0.886-0.343-1.833-1.43-1.833H147.142z"/>
		<path fill="#FFFFFF" d="M153.102,243.993c0.161-0.463,0.927-1.047,1.47-1.047c0.887,0,1.249,0.846,1.269,2.094
			c0.584-1.369,1.43-2.094,2.498-2.094c0.383,0,0.766,0.181,0.947,0.342c0.101,0.222,0.081,0.806-0.121,1.188
			c-0.081,0.423-0.483,0.906-0.786,0.946c-0.403-0.161-0.625-0.201-0.967-0.201c-0.322,0-0.907,0.242-1.229,1.088
			c-0.121,0.322-0.181,0.544-0.181,0.986c0,1.33,0,3.042,0,4.21c0,0.322-0.04,0.483-0.443,0.564c-0.705,0.08-1.33,0.101-2.055,0.101
			c0.041-1.067,0.061-2.297,0.061-3.666V245.1c0-0.463-0.121-0.825-0.463-1.027V243.993z"/>
		<path fill="#FFFFFF" d="M168.43,250.599c0.02,1.067-0.544,1.692-1.692,1.692c-0.826,0-1.369-0.424-1.631-1.129
			c-0.523,0.564-1.41,1.129-2.376,1.129c-1.33,0-2.518-1.008-2.518-2.498c0-2.074,2.417-2.639,3.847-2.961
			c0.363-0.08,0.806-0.141,1.047-0.201v-0.343c0-0.846-0.584-1.53-1.591-1.53c-0.725,0-1.43,0.322-1.873,0.584
			c-0.846,0.241-1.128-0.483-1.128-1.088c0.866-0.624,2.296-1.309,3.646-1.309c1.813,0,3.283,1.208,3.283,3.403
			c0,0.826-0.081,2.356-0.081,3.666c0,0.262,0.242,0.544,0.725,0.544c0.101,0,0.242-0.021,0.343-0.041V250.599z M162.548,249.451
			c0,0.705,0.544,1.108,1.188,1.108c0.564,0,0.886-0.222,1.168-0.523c0.101-0.121,0.161-0.322,0.161-0.686v-1.43
			c-1.752,0.201-2.518,0.846-2.518,1.511V249.451z"/>
		<path fill="#FFFFFF" d="M172.839,251.505c0,0.362-0.06,0.483-0.463,0.564c-0.685,0.08-1.309,0.101-2.034,0.101
			c0.041-1.067,0.061-2.297,0.061-3.666v-3.384c0-0.544-0.081-0.846-0.383-1.027v-0.141c0.222-0.504,0.906-1.007,1.491-1.007
			c0.846,0,1.067,0.725,1.208,1.349c0.806-0.685,1.873-1.349,2.92-1.349c1.309,0,2.014,0.624,2.437,1.47
			c0.786-0.725,1.974-1.47,3.082-1.47c2.276,0,2.88,1.953,2.88,3.484v2.739c0,1.047,0.021,2.155,0.061,2.84
			c-0.463,0.04-1.269,0.161-2.115,0.161c-0.262,0-0.383-0.121-0.383-0.383v-5.177c0-1.128-0.524-1.833-1.511-1.833
			c-0.705,0-1.229,0.383-1.651,0.766v6.002c0,0.363-0.041,0.464-0.463,0.524c-0.705,0.101-1.309,0.101-2.034,0.101
			c0.04-1.067,0.061-2.297,0.061-3.666v-1.894c0-1.147-0.524-1.833-1.471-1.833c-0.665,0-1.249,0.343-1.692,0.766V251.505z"/>
		<path fill="#FFFFFF" d="M186.777,245.564c0-1.249-0.041-1.854-0.081-2.256c0.443-0.121,1.611-0.242,2.135-0.242
			c0.302,0,0.383,0.101,0.383,1.27c0,1.329,0,2.819,0,4.229c0,1.551,0.927,1.853,1.651,1.853c0.665,0,1.188-0.322,1.511-0.624
			v-5.801c0-0.584,0.061-0.705,0.423-0.785c0.887-0.102,1.39-0.142,2.075-0.142c0,0.423-0.06,1.873-0.06,3.626v3.081
			c0,0.806,0.262,1.008,0.806,1.108v0.121c-0.081,0.604-0.685,1.289-1.209,1.289c-1.087,0-1.53-0.524-1.752-1.289
			c-0.524,0.482-1.128,0.805-1.531,1.007c-0.403,0.161-0.806,0.282-1.289,0.282c-2.155,0-3.062-1.431-3.062-3.404V245.564z"/>
		<path fill="#FFFFFF" d="M32.362,276.567c0,1.208-0.887,2.719-1.772,3.384c-0.423,0.343-0.967,0.402-1.652,0.383
			c0.665-1.007,1.168-2.316,1.168-3.565c0-0.383-0.061-0.685-0.121-0.906c0.463-0.182,1.067-0.463,1.611-0.463
			c0.503,0,0.766,0.563,0.766,1.147V276.567z M35.786,276.567c0,1.208-0.886,2.719-1.772,3.384
			c-0.403,0.343-0.967,0.402-1.651,0.383c0.665-1.007,1.168-2.316,1.168-3.565c0-0.383-0.061-0.685-0.121-0.906
			c0.463-0.182,1.068-0.463,1.632-0.463c0.483,0,0.745,0.563,0.745,1.147V276.567z"/>
		<path fill="#FFFFFF" d="M38.062,268.49c0-1.35-0.02-2.175-0.061-2.558c0.383-0.061,1.752-0.161,2.175-0.161
			c0.363,0,0.403,0.181,0.403,1.067v5.177c1.511-1.732,3.888-4.532,5.277-6.325c0.362,0,0.846,0.021,1.39,0.121
			c0.725,0.121,0.705,0.403,0.282,0.967c-0.927,1.128-3.042,3.484-4.371,5.035c1.007,1.491,3.867,5.076,5.177,6.445v0.061
			c-0.182,0.121-1.108,0.282-2.015,0.282c-0.624,0-0.967-0.161-1.591-0.906c-0.987-1.168-3.787-4.754-4.149-5.378v3.605
			c0,1.41,0.041,2.074,0.061,2.478c-0.322,0.101-1.692,0.161-2.135,0.161c-0.302,0-0.443-0.061-0.443-0.383V268.49z"/>
		<path fill="#FFFFFF" d="M49.501,271.955c0-1.249-0.041-1.854-0.081-2.256c0.443-0.121,1.611-0.242,2.135-0.242
			c0.302,0,0.383,0.101,0.383,1.27c0,1.329,0,2.819,0,4.229c0,1.551,0.927,1.853,1.651,1.853c0.665,0,1.188-0.322,1.511-0.624
			v-5.801c0-0.584,0.061-0.705,0.423-0.785c0.887-0.102,1.39-0.142,2.075-0.142c0,0.423-0.06,1.873-0.06,3.626v3.081
			c0,0.806,0.262,1.008,0.806,1.108v0.121c-0.081,0.604-0.685,1.289-1.209,1.289c-1.087,0-1.53-0.524-1.752-1.289
			c-0.524,0.482-1.128,0.805-1.531,1.007c-0.403,0.161-0.806,0.282-1.289,0.282c-2.155,0-3.062-1.431-3.062-3.404V271.955z"/>
		<path fill="#FFFFFF" d="M60.377,267.282c0-1.188-0.041-1.732-0.081-2.135c0.403-0.182,1.712-0.363,2.135-0.363
			c0.302,0,0.383,0.101,0.383,1.31v9.688c0,0.986,0.041,2.074,0.081,2.658c-0.423,0.101-1.954,0.161-2.236,0.161
			c-0.201,0-0.282-0.061-0.282-0.262V267.282z"/>
		<path fill="#FFFFFF" d="M70.971,276.627c0.101,0.483,0.021,1.107-0.342,1.41c-0.483,0.423-1.329,0.645-2.215,0.645
			c-2.055,0-2.719-1.31-2.719-2.699c0-0.866,0-2.699,0-4.814c-0.745,0-1.128-0.362-1.128-0.563c0.282-0.584,1.914-2.034,2.256-2.316
			s0.725-0.523,1.511-0.604c-0.081,0.604-0.121,1.33-0.121,1.894c0.786,0,2.679,0,2.981,0c-0.242,1.39-0.685,1.45-1.087,1.49
			c-0.463,0.04-1.108,0.081-1.954,0.081c-0.081,1.651-0.061,3.605,0.02,4.451c0.101,0.986,0.645,1.35,1.329,1.35
			c0.604,0,1.168-0.201,1.41-0.363L70.971,276.627z"/>
		<path fill="#FFFFFF" d="M72.643,271.955c0-1.249-0.041-1.854-0.081-2.256c0.443-0.121,1.611-0.242,2.135-0.242
			c0.302,0,0.383,0.101,0.383,1.27c0,1.329,0,2.819,0,4.229c0,1.551,0.926,1.853,1.652,1.853c0.665,0,1.188-0.322,1.51-0.624v-5.801
			c0-0.584,0.061-0.705,0.423-0.785c0.886-0.102,1.39-0.142,2.074-0.142c0,0.423-0.061,1.873-0.061,3.626v3.081
			c0,0.806,0.262,1.008,0.806,1.108v0.121c-0.08,0.604-0.685,1.289-1.208,1.289c-1.088,0-1.531-0.524-1.752-1.289
			c-0.524,0.482-1.128,0.805-1.531,1.007c-0.403,0.161-0.806,0.282-1.289,0.282c-2.155,0-3.062-1.431-3.062-3.404V271.955z"/>
		<path fill="#FFFFFF" d="M83.156,270.383c0.161-0.463,0.927-1.047,1.47-1.047c0.887,0,1.249,0.846,1.269,2.094
			c0.584-1.369,1.43-2.094,2.498-2.094c0.383,0,0.766,0.181,0.947,0.342c0.101,0.222,0.081,0.806-0.121,1.188
			c-0.081,0.423-0.483,0.906-0.786,0.946c-0.403-0.161-0.625-0.201-0.967-0.201c-0.322,0-0.907,0.242-1.229,1.088
			c-0.121,0.322-0.181,0.544-0.181,0.986c0,1.33,0,3.042,0,4.21c0,0.322-0.04,0.483-0.443,0.564c-0.705,0.08-1.33,0.101-2.055,0.101
			c0.041-1.067,0.061-2.297,0.061-3.666v-3.404c0-0.463-0.121-0.825-0.463-1.027V270.383z"/>
		<path fill="#FFFFFF" d="M98.482,276.99c0.02,1.067-0.544,1.692-1.692,1.692c-0.826,0-1.369-0.424-1.631-1.129
			c-0.523,0.564-1.41,1.129-2.376,1.129c-1.33,0-2.518-1.008-2.518-2.498c0-2.074,2.417-2.639,3.847-2.961
			c0.363-0.08,0.806-0.141,1.047-0.201v-0.343c0-0.846-0.584-1.53-1.591-1.53c-0.725,0-1.43,0.322-1.873,0.584
			c-0.846,0.241-1.128-0.483-1.128-1.088c0.866-0.624,2.296-1.309,3.646-1.309c1.813,0,3.283,1.208,3.283,3.403
			c0,0.826-0.081,2.356-0.081,3.666c0,0.262,0.242,0.544,0.725,0.544c0.101,0,0.242-0.021,0.343-0.041V276.99z M92.601,275.841
			c0,0.705,0.544,1.108,1.188,1.108c0.564,0,0.886-0.222,1.168-0.523c0.101-0.121,0.161-0.322,0.161-0.686v-1.43
			c-1.752,0.201-2.518,0.846-2.518,1.511V275.841z"/>
		<path fill="#FFFFFF" d="M105.874,269.336c0.242,0,0.382,0.141,0.463,0.482c0.443,1.531,0.866,3.183,1.551,6.003
			c0.946-3.082,1.249-3.948,1.631-5.298c-0.02-0.181-0.081-0.423-0.121-0.604c0.322-0.121,1.39-0.363,1.792-0.363
			c0.322,0,0.382,0.222,0.503,0.686c0.362,1.39,1.007,3.605,1.511,5.458c0.685-2.115,1.43-4.713,1.853-6.364
			c0.564,0.02,1.188,0.08,1.671,0.241c0.262,0.121,0.302,0.383,0.081,1.067c-0.846,2.438-1.672,4.713-2.558,7.19
			c-0.141,0.403-0.222,0.564-0.625,0.665c-0.483,0.121-1.108,0.182-1.651,0.182c-0.524-1.975-1.007-3.505-1.611-5.721
			c-0.423,1.35-1.048,3.143-1.611,4.895c-0.121,0.402-0.242,0.563-0.564,0.645c-0.503,0.101-1.128,0.182-1.591,0.182
			c-0.524-1.632-1.148-3.727-1.914-6.022c-0.443-1.33-0.725-2.136-1.007-2.82c0.403-0.161,1.611-0.503,2.176-0.503H105.874z"/>
		<path fill="#FFFFFF" d="M125.813,269.336c0.806,0,1.591,0.201,2.256,0.704c0.02,0.524-0.222,1.31-0.927,1.249
			c-0.403-0.182-0.906-0.322-1.39-0.322c-0.604,0-1.027,0.322-1.027,0.806c0,0.423,0.322,0.665,0.745,0.906
			c0.383,0.222,1.188,0.584,1.652,0.826c1.007,0.563,1.41,1.329,1.41,2.216c0,1.994-1.772,2.961-3.605,2.961
			c-0.785,0-1.631-0.222-2.175-0.564c-0.262-0.182-0.443-0.423-0.443-0.725c0.02-0.424,0.242-0.866,0.523-1.088
			c0.584,0.362,1.45,0.725,2.256,0.725c0.726,0,1.148-0.342,1.148-0.846c0-0.362-0.202-0.624-0.786-0.927
			c-0.503-0.282-1.027-0.523-1.531-0.806c-0.826-0.463-1.41-1.229-1.41-2.296c0-1.793,1.551-2.819,3.283-2.819H125.813z"/>
		<path fill="#FFFFFF" d="M131.715,265.106c0.765,0,1.229,0.564,1.229,1.31c0,0.766-0.544,1.369-1.31,1.369
			c-0.624,0-1.269-0.382-1.269-1.309c0-0.987,0.826-1.37,1.329-1.37H131.715z M132.883,277.957c0,0.362-0.141,0.463-0.584,0.523
			c-0.403,0.061-1.128,0.081-1.914,0.081c0.02-0.826,0.061-1.994,0.061-3.162v-3.444c0-1.229-0.041-1.854-0.081-2.256
			c0.463-0.142,1.732-0.242,2.155-0.242c0.282,0,0.362,0.101,0.362,1.27V277.957z"/>
		<path fill="#FFFFFF" d="M142.429,276.446c0,0.887-0.705,1.712-1.047,1.873c-0.302,0.142-1.168,0.363-1.873,0.363
			c-2.941,0-4.552-1.611-4.552-4.572c0-2.438,1.591-4.773,4.311-4.773c2.558,0,3.545,1.853,3.565,3.464
			c0,0.282-0.02,0.504-0.061,0.665c-0.06,0.302-0.866,0.584-1.692,0.785c-0.503,0.121-2.598,0.141-3.706,0.101
			c0.101,1.772,1.39,2.518,2.76,2.518c0.967,0,1.913-0.302,2.256-0.463L142.429,276.446z M139.045,270.746
			c-0.745,0-1.551,0.705-1.631,2.216c0.826,0.061,2.376,0.04,2.86,0c0.141,0,0.262-0.201,0.262-0.423
			c0.021-0.987-0.443-1.793-1.47-1.793H139.045z"/>
		<path fill="#FFFFFF" d="M151.875,276.546c-0.02,0.584-0.302,1.289-0.665,1.611c-0.584,0.362-1.43,0.524-2.276,0.524
			c-2.618,0-4.652-1.511-4.652-4.472c0-2.9,2.175-4.874,4.975-4.874c1.37,0,2.336,0.423,2.699,0.765c0,0.524-0.262,1.27-0.967,1.249
			c-0.463-0.182-1.088-0.322-1.632-0.322c-1.45,0-2.578,1.007-2.578,2.84c0,2.195,1.491,3.001,2.88,3.001
			c0.866,0,1.631-0.161,2.175-0.383L151.875,276.546z"/>
		<path fill="#FFFFFF" d="M154.976,265.106c0.765,0,1.229,0.564,1.229,1.31c0,0.766-0.544,1.369-1.31,1.369
			c-0.624,0-1.269-0.382-1.269-1.309c0-0.987,0.826-1.37,1.329-1.37H154.976z M156.144,277.957c0,0.362-0.141,0.463-0.584,0.523
			c-0.403,0.061-1.128,0.081-1.914,0.081c0.02-0.826,0.061-1.994,0.061-3.162v-3.444c0-1.229-0.041-1.854-0.081-2.256
			c0.463-0.142,1.732-0.242,2.155-0.242c0.282,0,0.362,0.101,0.362,1.27V277.957z"/>
		<path fill="#FFFFFF" d="M161.44,265.811c0,1.148-0.745,2.618-1.551,3.243c-0.403,0.342-0.947,0.423-1.611,0.402
			c0.604-0.967,1.007-2.216,1.007-3.464c0-0.322-0.04-0.625-0.101-0.846c0.423-0.182,1.007-0.443,1.531-0.443
			c0.483,0,0.725,0.483,0.725,1.088V265.811z M164.764,265.811c0,1.148-0.745,2.618-1.551,3.243
			c-0.403,0.342-0.947,0.423-1.652,0.402c0.625-0.967,1.047-2.216,1.047-3.464c0-0.322-0.04-0.625-0.121-0.846
			c0.443-0.182,1.027-0.443,1.571-0.443c0.463,0,0.705,0.483,0.705,1.088V265.811z"/>
	</g>
</g>
</svg>
