<?xml version="1.0" encoding="utf-8"?>
<!-- Generator: Adobe Illustrator 16.0.0, SVG Export Plug-In . SVG Version: 6.00 Build 0)  -->
<!DOCTYPE svg PUBLIC "-//W3C//DTD SVG 1.1//EN" "http://www.w3.org/Graphics/SVG/1.1/DTD/svg11.dtd">
<svg version="1.1" id="Layer_1" xmlns="http://www.w3.org/2000/svg" xmlns:xlink="http://www.w3.org/1999/xlink" x="0px" y="0px"
	 width="56.689px" height="56.689px" viewBox="0 0 56.689 56.689" enable-background="new 0 0 56.689 56.689" xml:space="preserve">
<g>
	<g>
		<path fill="#939291" d="M28.346,55.638c-15.05,0-27.293-12.243-27.293-27.292S13.296,1.053,28.346,1.053
			c15.049,0,27.292,12.244,27.292,27.293S43.395,55.638,28.346,55.638z M28.346,3.985c-13.434,0-24.361,10.929-24.361,24.361
			c0,13.432,10.929,24.36,24.361,24.36c13.432,0,24.359-10.93,24.359-24.36C52.705,14.913,41.777,3.985,28.346,3.985z"/>
	</g>
	<g>
		<path fill="#939291" d="M24.065,28.474v15.819c0,0.227,0.186,0.412,0.412,0.412h5.874c0.229,0,0.412-0.187,0.412-0.412V28.216
			h4.258c0.215,0,0.394-0.164,0.411-0.377l0.409-4.844c0.021-0.24-0.169-0.447-0.41-0.447h-4.668v-3.438
			c0-0.806,0.652-1.458,1.458-1.458h3.282c0.228,0,0.412-0.184,0.412-0.411v-4.845c0-0.228-0.186-0.412-0.412-0.412h-5.546
			c-3.255,0-5.894,2.639-5.894,5.894v4.67h-2.938c-0.229,0-0.412,0.185-0.412,0.412v4.844c0,0.229,0.185,0.412,0.412,0.412h2.938
			L24.065,28.474L24.065,28.474z"/>
	</g>
</g>
</svg>
